
bennon_1 = {
	slot = 1
	generic = no
	ai = yes
	potential = {
		OR = {
			tag = A39
			tag = B66
		}
	}
	has_country_shield = yes
	
	A39_havorals_dividers = {
		icon = mission_build_up_to_force_limit
		position = 1
		required_missions = {}
		trigger = {
			OR = {
				emperor = {
					tag = A30
					has_opinion = {
						who = ROOT
						value = 100
					}
				}
				AND = {
					emperor = {
						has_opinion = {
							who = ROOT
							value = 150
						}
					}
					diplomatic_reputation = 2
				}
			}
		}
		effect = {
			912 = { #Anvilwright
				add_permanent_claim = ROOT
			}
			308 = { #Silverforge Hall
				add_permanent_claim = ROOT
			}
		}
	}
	
	A39_havorton_reunion = {
		icon = mission_green_village
		position = 2
		required_missions = { A39_assessing_lilac_aftermath }
		provinces_to_highlight = {
			province_id = 909
			NOT = {
				owned_by = ROOT
			}
		}
		trigger = {
			owns_core_province = 909 #Havorton
		}
		effect = {
			911 = { #Telgeir
				add_permanent_claim = ROOT
			}
			260 = { #Gabmorionn
				add_permanent_claim = ROOT
			}
			266 = { #Esmaraine
				add_permanent_claim = ROOT
			}
		}
	}
	
	A39_following_the_esmar = {
		icon = mission_advance_to_the_dnieper
		position = 3
		required_missions = { A39_havorton_reunion }
		provinces_to_highlight = {
			OR = {
				province_id = 911
				province_id = 260
			}
			NOT = {
				owned_by = ROOT
			}
		}
		trigger = {
			owns_core_province = 911 #Telgeir
			owns_core_province = 260 #Gabmorionn
		}
		effect = {
			262 = { #Aranmas
				add_permanent_claim = ROOT
			}
			254 = { #Calascandar
				add_permanent_claim = ROOT
			}
		}
	}
	
	A39_castle_on_the_mountain = {
		icon = mission_magnificent_castle
		position = 4
		required_missions = { A39_following_the_esmar }
		provinces_to_highlight = {
			OR = {
				province_id = 254
				province_id = 262
			}
			NOT = {
				owned_by = ROOT
			}
		}
		trigger = {
			owns_core_province = 254 #Aranmas
			owns_core_province = 262 #Calascandar
		}
		effect = {
			add_prestige = 15
			add_splendor = 200
		}
	}
	
	A39_asserting_our_right = {
		icon = mission_unite_west_india
		position = 5
		required_missions = { A39_castle_on_the_mountain }
		provinces_to_highlight = {
			province_id = 266
			NOT = {
				owned_by = ROOT
			}
		}
		trigger = {
			prestige = 50
			owns_core_province = 266
			custom_trigger_tooltip = { #No Esmari Primary Culture Nation Has Army Bigger Than You
				tooltip = bennon_asserting_our_right_trigger_tt
				all_known_country = {
					if = {
						limit = {
							primary_culture = esmari
						}
						NOT = {
							army_size = ROOT
						}
					}
				}
			}
		}
		effect = {
			add_country_modifier = {
				name = bennon_asserting_our_right
				duration = 18250
			}
			add_power_projection = {
				type = mission_rewards_power_projection
				amount = 25
			}
		}
	}
}

bennon_2 = {
	slot = 2
	generic = no
	ai = yes
	potential = {
		OR = {
			tag = A39
			tag = B66
		}
	}
	has_country_shield = yes
	
	A39_assessing_lilac_aftermath = {
		icon = mission_rule_indochina
		position = 1
		required_missions = {}
		trigger = {
			army_size_percentage = 0.90
		}
		effect = {
			bennonhill_area = { #Bennonhill Area
				add_permanent_claim = ROOT
			}
		}
	}
	
	A39_havoral_tunnel = {
		icon = mission_armoury
		position = 2
		required_missions = { A39_assessing_lilac_aftermath }
		provinces_to_highlight = {
			province_id = 263
			NOT = {
				owned_by = ROOT
			}
		}
		trigger = {
			263 = { #Oldpassage
				base_manpower = 8
				has_fort_building_trigger = yes
			}
		}
		effect = {
			263 = { #Oldpassage
				add_province_modifier = {
					name = bennon_tunnel_garrison
					duration = -1
				}
			}
			356 = { #Ar Einnas
				add_permanent_claim = ROOT
			}
		}
	}
	
	A39_on_the_front_foot = {
		icon = mission_marathi_fiefs
		position = 3
		required_missions = { A39_havoral_tunnel }
		provinces_to_highlight = {
			province_id = 356
			NOT = {
				owned_by = ROOT
			}
		}
		trigger = {
			356 = { #Ar Einnas
				owned_by = ROOT
			}
		}
		effect = {
			314 = { #Teinmas
				add_permanent_claim = ROOT
			}
			354 = { #Larthan
				add_permanent_claim = ROOT
			}
			351 = { #Nurael
				add_permanent_claim = ROOT
			}
			261 = { #Carodir's Pass
				add_permanent_claim = ROOT
			}
			add_country_modifier = {
				name = bennon_battle_for_the_vale
				duration = 5475
			}
		}
	}
	
	A39_elvish_valley = {
		icon = mission_portuguese_interference
		position = 4
		required_missions = { A39_on_the_front_foot }
		trigger = {
			num_of_owned_provinces_with = {
				value = 5
				region = forlorn_vale_region
			}
		}
		effect = {
			south_ibevar_area = {
				add_permanent_claim = ROOT
			}
			north_ibevar_area = {
				add_permanent_claim = ROOT
			}
			teagansfield_area = {
				add_permanent_claim = ROOT
			}
			311 = { #Ashfield
				add_permanent_claim = ROOT
			}
		}
	}
	
	A39_ancestral_homecoming = {
		icon = mission_upper_burma_campaign
		position = 5
		required_missions = { A39_elvish_valley }
		provinces_to_highlight = {
			OR = {
				area = north_ibevar_area
				area = south_ibevar_area
				area = teagansfield_area
				province_id = 314
				province_id = 311
			}
			NOT = {
				owned_by = ROOT
			}
		}
		trigger = {
			north_ibevar_area = {
				type = all
				owned_by = ROOT
			}
			south_ibevar_area = {
				type = all
				owned_by = ROOT
			}
			teagansfield_area = {
				type = all
				owned_by = ROOT
			}
			314 = {
				owned_by = ROOT
			}
			311 = {
				owned_by = ROOT
			}
		}
		effect = {
			add_power_projection = {
				type = mission_rewards_power_projection
				amount = 15
			}
			add_country_modifier = {
				name = bennon_ancestral_homecoming
				duration = 10950
			}
		}
	}
	
	A39_havoric_restoration = {
		icon = mission_restore_kiev
		position = 6
		required_missions = {
			A39_ancestral_homecoming
			A39_asserting_our_right
		}
		provinces_to_highlight = {
			OR = {
				area = north_ibevar_area
				area = south_ibevar_area
				area = teagansfield_area
				area = bennonhill_area
				province_id = 314
				province_id = 311
				province_id = 912
				province_id = 308
				province_id = 266
				province_id = 260
				province_id = 911
				province_id = 262
				province_id = 254
			}
			NOT = {
				owned_by = ROOT
			}
		}
		trigger = {
			custom_trigger_tooltip = {
				tooltip = bennon_havoral_dejure_land_tt
				north_ibevar_area = {
					type = all
					owned_by = ROOT
				}
				south_ibevar_area = {
					type = all
					owned_by = ROOT
				}
				teagansfield_area = {
					type = all
					owned_by = ROOT
				}
				bennonhill_area = {
					type = all
					owned_by = ROOT
				}
				314 = { #Teinmas
					owned_by = ROOT
				}
				311 = { #Ashfield
					owned_by = ROOT
				}
				912 = { #Anvilwright
					owned_by = ROOT
				}
				308 = { #Silverforge
					owned_by = ROOT
				}
				266 = { #Esmaraine
					owned_by = ROOT
				}
				260 = { #Gabmorionn
					owned_by = ROOT
				}
				911 = { #Telgeir
					owned_by = ROOT
				}
				262 = { #Aranmas
					owned_by = ROOT
				}
				254 = { #Calascandar
					owned_by = ROOT
				}
			}
		}
		effect = {
			custom_tooltip = havoric_restoration_tt
			hidden_effect = {
				country_event = { 
					id = bennon_events.6 
				}
			}
		}
	}
}

bennon_3 = {
	slot = 3
	generic = no
	ai = yes
	potential = {
		OR = {
			tag = A39
			tag = B66
		}
	}
	has_country_shield = yes
	
	A39_tales_from_yore = {
		icon = mission_court_education
		position = 1
		required_missions = {}
		provinces_to_highlight = {
			province_id = 268 #Bennon
			NOT = {
				development = 25
			}
		}
		trigger = {
			has_institution = renaissance
			268 = { #Bennon
				development = 25
			}
		}
		effect = {
			add_country_modifier = {
				name = bennon_tales_from_yore
				duration = 5475
			}
		}
	}
	
	A39_mountain_hamlets = {
		icon = mission_rb_colonise_canada
		position = 2
		required_missions = { 
			A39_tales_from_yore
			A39_goat_lords_of_bennonhill
		}
		provinces_to_highlight = {
			OR = {
				province_id = 263 #Oldpassage
				province_id = 270 #Bennonhill
			}
			NOT = {
				owned_by = ROOT
			}
		}
		trigger = {
			owns_core_province = 263 #Oldpassage
			owns_core_province = 270 #Bennonhill
			treasury = 100
			adm_power = 50
		}
		effect = {
			263 = { #Oldpassage
				add_province_modifier = {
					name = bennon_hamlet_development
					duration = 7300
				}
			}
			270 = { #Bennonhill
				add_province_modifier = {
					name = bennon_hamlet_development
					duration = 7300
				}
			}
			add_treasury = -100
			add_adm_power = -50
		}
	}
	
	A39_clan_autonomy = {
		icon = mission_wine_monopolies
		position = 3
		required_missions = { A39_mountain_hamlets }
		provinces_to_highlight = {
			OR = {
				province_id = 263 #Oldpassage
				province_id = 270 #Bennonhill
			}
			NOT = {
				development = 20
			}
		}
		trigger = {
			263 = { #Oldpassage
				development = 20
			}
			270 = { #Bennonhill
				development = 20
			}
		}
		effect = {
			263 = { #Oldpassage
				add_local_autonomy = 25
			}
			270 = { #Bennonhill
				add_local_autonomy = 25
			}
			add_stability = 1
		}
	}
}

bennon_4 = {
	slot = 4
	generic = no
	ai = yes
	potential = {
		OR = {
			tag = A39
			tag = B66
		}
	}
	has_country_shield = yes
	
	A39_goat_lords_of_bennonhill = {
		icon = mission_rb_conquer_wales
		position = 1
		required_missions = {}
		provinces_to_highlight = {
			province_id = 270 #Bennonhill
			NOT = {
				AND = {
					base_production = 8
					has_production_building_trigger = yes
				}
			}
		}
		trigger = {
			270 = { #Bennonhill
				base_production = 8
				has_production_building_trigger = yes
			}
		}
		effect = {
			270 = { #Bennonhill
				add_province_modifier = {
					name = bennon_goat_pastures
					duration = -1
				}
			}
		}
	}
	
	A39_lowland_pastures = {
		icon = mission_green_village
		position = 2
		required_missions = { A39_goat_lords_of_bennonhill }
		provinces_to_highlight = {
			province_id = 909 #Havorton
			NOT = {
				AND = {
					base_production = 10
					has_production_building_trigger = yes
				}
			}
		}
		trigger = {
			909 = { #Havorton
				owned_by = ROOT
				base_production = 10
				has_production_building_trigger = yes
			}
		}
		effect = {
			909 = { #Havorton
				add_province_modifier = {
					name = bennon_goat_pastures
					duration = -1
				}
			}
		}
	}
	
	A39_havoric_wool_fashion = {
		icon = mission_reliable_allies
		position = 3
		required_missions = { A39_lowland_pastures }
		provinces_to_highlight = {
			province_id = 270
			NOT = {
				AND = {
					base_production = 12
					has_building = textile
				}
			}
		}
		trigger = {
			270 = { #Bennonhill
				owned_by = ROOT
				base_production = 12
				has_building = textile
			}
			901 = { #Esmaraine
				trade_share = {
					country = ROOT
					share = 25
				}
			}
		}
		effect = {
			270 = { #Bennonhill
				remove_province_modifier = bennon_goat_pastures
				add_province_modifier = {
					name = bennon_havoric_wool_fashion
					duration = -1
				}
			}
		}
	}
	
	A39_clan_mineral_prospecting = {
		icon = mission_smith
		position = 4
		required_missions = { A39_clan_autonomy }
		provinces_to_highlight = {
			OR = {
				province_id = 263
				province_id = 356
			}
			NOT = {
				has_owner_accepted_culture = yes
				has_owner_culture = yes
			}
		}
		trigger = {
			263 = { #Oldpassage
				owned_by = ROOT
				OR = {
					has_owner_accepted_culture = yes
					has_owner_culture = yes
				}
			}
			356 = { #Ar Einnas
				owned_by = ROOT
				OR = {
					has_owner_accepted_culture = yes
					has_owner_culture = yes
				}
			}
			treasury = 100
		}
		effect = {
			263 = { #Oldpassage
				add_province_modifier = {
					name = bennon_clans_put_to_work
					duration = 18250
				}
			}
			356 = { #Ar Einnas
				add_province_modifier = {
					name = bennon_clans_put_to_work
					duration = 18250
				}
			}
			add_treasury = -100
		}
	}
	
	A39_havorals_riches = {
		icon = mission_zambezi_gold
		position = 5
		required_missions = { A39_clan_mineral_prospecting }
		provinces_to_highlight = {
			owned_by = ROOT
			OR = {
				trade_goods = iron
				trade_goods = copper
			}
			NOT = {
				base_production = 10
				has_building = weapons
			}
		}
		trigger = {
			num_of_owned_provinces_with = {
				value = 5
				OR = {
					trade_goods = iron
					trade_goods = copper
				}
				base_production = 10
				has_building = weapons
			}
			treasury = 200
		}
		effect = {
			every_owned_province = {
				limit = {
					OR = {
						trade_goods = iron
						trade_goods = copper
					}
					base_production = 10
					has_building = weapons
				}
				add_province_modifier = {
					name = bennon_clans_put_to_work
					duration = 18250
				}
			}
			add_treasury = -200
		}
	}
}

bennon_5 = {
	slot = 5
	generic = no
	ai = yes
	potential = {
		OR = {
			tag = A39
			tag = B66
		}
	}
	has_country_shield = yes
	
	A39_bennonian_champions = {
		icon = mission_unite_rajputana
		position = 1
		required_missions = {}
		trigger = {
			# if = {
			# 	limit = { has_dlc = "Mandate of Heaven" }
			# 	has_age_ability = ab_veterans_of_the_lilac_wars
			# }
			#else = {
			#	NOT = { current_age = age_of_discovery }
				estate_loyalty = {
					estate = estate_nobles
					loyalty = 60
				}
			#}
		}
		effect = {
			add_country_modifier = {
				name = bennon_bennonian_champions
				duration = 9125
			}
		}
	}
	
	A39_training_tomorrows_knight_lords = {
		icon = mission_armor_choice
		position = 2
		required_missions = { A39_bennonian_champions }
		trigger = {
			mil_power = 100
			army_tradition = 30
			num_of_cavalry = 8
		}
		effect = {
			add_mil_power = -100
			add_army_tradition = -15
			add_country_modifier = {
				name = bennon_training_tomorrows_knights
				duration = 9125
			}
		}
	}
	
	A39_divides_knight_lords = {
		icon = mission_subdue_rajputana
		position = 3
		required_missions = { A39_training_tomorrows_knight_lords }
		trigger = {
			NOT = {
				has_country_modifier = bennon_training_tomorrows_knights
			}
			treasury = 100
		}
		effect = {
			add_treasury = -100
			add_country_modifier = {
				name = bennon_bennonian_knight_lords
				duration = -1
			}
		}
	}
}

havoral_havoric_vanguard_core_group = {
	slot = 5
	generic = no
	ai = yes
	potential = {
		tag = B66
	}
	has_country_shield = yes
	
	B66_havoric_vanguard_core = {
		icon = the_hundred_years_war
		position = 4
		required_missions = { A39_divides_knight_lords }
		trigger = {
			num_of_owned_provinces_with = {
				value = 10
				culture = havoric
				base_manpower = 10
			}
			army_tradition = 50
			mil_power = 100
		}
		effect = {
			add_mil_power = -100
			add_army_tradition = -20
			remove_country_modifier = bennon_bennonian_knight_lords
			add_country_modifier = {
				name = havoral_havoric_vanguard_core
				duration = -1
			}
		}
	}
}

bennon_divded_court_group = {
	slot = 5
	generic = no
	ai = yes
	potential = {
		OR = {
			tag = A39
			tag = B66
		}
	}
	has_country_shield = yes
	
	A39_a_divided_court = {
		icon = mission_religious
		position = 5
		required_missions = {}
		trigger = {
			is_religion_enabled = corinite
			OR = {
				custom_trigger_tooltip = {
					tooltip = bennon_a_divided_court_tt
					OR = {
						has_global_flag = crimson_deluge_is_over
						has_global_flag = crimson_deluge_is_actively_happening
					}
				}
				religion = corinite
			}
		}
		effect = {
			if = {
				limit = {
					religion = regent_court
				}
				change_religion = corinite
				hidden_effect = {
					add_prestige = 100
				}
			}
			else = {
				add_stability = 1
			}
		}
	}
}

havoral_tutors_of_corin_group = {
	slot = 5
	generic = no
	ai = yes
	potential = {
		tag = B66
	}
	has_country_shield = yes
	
	B66_the_tutors_of_corin = {
		icon = crush_heretic_strongholds
		position = 6
		required_missions = { A39_a_divided_court }
		trigger = {
			religion = corinite
			is_in_league_war = yes
			in_or_leading_corinite_league = yes
		}
		effect = {
			add_country_modifier = {
				name = havoral_corinite_vanguard
				duration = 9125
			}
		}
	}
}

havoral_1 = {
	slot = 1
	generic = no
	ai = yes
	potential = {
		tag = B66
	}
	has_country_shield = yes
	
	B66_question_of_kingdom = {
		icon = mission_empire
		position = 7
		required_missions = {
			A39_asserting_our_right
			A39_havoric_restoration
		}
		trigger = {
			OR = {
				AND = { #No Esmari Nation Has 200 Dev
					is_part_of_hre = yes
					NOT = {
						exists = Z46
					}
					custom_trigger_tooltip = {
						tooltip = havoral_question_of_kingdom_trigger_tt
						NOT = {
							any_known_country = {
								capital_scope = { region = esmaria_region }
								culture = esmari
								total_development = 200
							}
						}
					}
				}
				NOT = {
					is_part_of_hre = yes
				}
			}
		}
		effect = {
			if = {
				limit = {
					is_part_of_hre = yes
				}
				custom_tooltip = havoral_become_grand_duchy_tt
				set_country_flag = is_a_grand_duchy
				add_prestige = 10
			}
			else = {
				set_government_rank = 2
			}
		}
	}
	
	B66_influencing_the_cities = {
		icon = mission_seize_north_sea_trade
		position = 8
		required_missions = {
			B66_question_of_kingdom
			B66_havoric_influence
		}
		provinces_to_highlight = {
			OR = {
				province_id = 911 #Telgeir
				province_id = 266 #Esmaraine
			}
		}
		trigger = {
			dip_power = 200
			num_of_owned_provinces_with = {
				value = 5
				culture = havoric
			}
			266 = { #Esmaraine
				NOT = {
					has_construction = building
					has_construction = missionary
					has_construction = culture
				}
				nationalism  = 0
			}
			911 = { #Telgeir
				NOT = {
					has_construction = building
					has_construction = missionary
					has_construction = culture
				}
				nationalism  = 0
			}
		}
		effect = {
			add_dip_power = -150
			266 = { #Esmaraine
				add_culture_construction = {
					speed = 0.5
					cost = 0
				}
			}
			911 = { #Telgeir
				add_culture_construction = {
					speed = 0.5
					cost = 0
				}
			}
		}
	}
	
	B66_where_the_rivers_come = {
		icon = mission_heart_of_the_hansa
		position = 9
		required_missions = { B66_influencing_the_cities }
		provinces_to_highlight = {
			OR = {
				province_id = 909
				province_id = 270
				province_id = 268
				province_id = 263
				province_id = 266
				province_id = 260
				province_id = 911
			}
			culture = esmari
		}
		trigger = {
			custom_trigger_tooltip = {
				tooltip = havoral_dejure_culture_esmaria_tt
				909 = { #Havorton
					NOT = {
						culture = esmari
					}
				}
				270 = { #Bennonhill
					NOT = {
						culture = esmari
					}
				}
				268 = { #Bennon
					NOT = {
						culture = esmari
					}
				}
				263 = { #Oldpassage
					NOT = {
						culture = esmari
					}
				}
				266 = { #Esmaraine
					NOT = {
						culture = esmari
					}
				}
				260 = { #Gabmorionn
					NOT = {
						culture = esmari
					}
				}
				911 = { #Telgeir
					NOT = {
						culture = esmari
					}
				}
			}
		}
		effect = {
			hearthswood_area = {
				add_permanent_claim = ROOT
			}
			ryalanar_area = {
				add_permanent_claim = ROOT
			}
			267 = { #Themarenn
				add_permanent_claim = ROOT
			}
		}
	}
	
	B66_esmari_consolidation = {
		icon = mission_rb_unite_the_clans
		position = 10
		required_missions = { B66_where_the_rivers_come }
		provinces_to_highlight = {
			OR = {
				area = hearthswood_area
				area = ryalanar_area
				province_id = 267
			}
			NOT = {
				owned_by = ROOT
			}
		}
		trigger = {
			hearthswood_area = {
				type = all
				owned_by = ROOT
				is_core = ROOT
			}
			ryalanar_area = {
				type = all
				owned_by = ROOT
				is_core = ROOT
			}
			owns_core_province = 267 #Themarenn
		}
		effect = {
			esmaria_region = {
				add_permanent_claim = ROOT
			}
			heartland_borders_area = {
				add_permanent_claim = ROOT
			}
		}
	}
	
	B66_look_upon_the_riverlands = {
		icon = mission_tree_fishing
		position = 11
		required_missions = { B66_esmari_consolidation }
		provinces_to_highlight = {
			OR = {
				region = esmaria_region
				area = heartland_borders_area
			}
			NOT = {
				owned_by = ROOT
			}
		}
		trigger = {
			esmaria_region = {
				type = all
				owned_by = ROOT
				is_core = ROOT
			}
			heartland_borders_area = {
				type = all
				owned_by = ROOT
				is_core = ROOT
			}
		}
		effect = {
			add_country_modifier = {
				name = havoral_riverland_consolidation
				duration = -1
			}
		}
	}
}

havoral_2 = {
	slot = 2
	generic = no
	ai = yes
	potential = {
		tag = B66
	}
	has_country_shield = yes
	
	B66_havoric_influence = {
		icon = mission_rb_irish_america
		position = 7
		required_missions = { A39_havoric_restoration }
		provinces_to_highlight = {
			OR = {
				province_id = 260
				province_id = 262
				province_id = 254
			}
		}
		trigger = {
			dip_power = 50
			development_in_provinces = {
				value = 80
				culture = havoric
			}
			260 = { #Gabmorionn
				NOT = {
					has_construction = building
					has_construction = missionary
					has_construction = culture
				}
			}
			262 = { #Aranmas
				NOT = {
					has_construction = building
					has_construction = missionary
					has_construction = culture
				}
			}
			254 = { #Calascandar
				NOT = {
					has_construction = building
					has_construction = missionary
					has_construction = culture
				}
			}
		}
		effect = {
			add_dip_power = -50
			260 = { #Gabmorionn
				add_culture_construction = {
					speed = 0.5
					cost = 0
				}
			}
			262 = { #Aranmas
				add_culture_construction = {
					speed = 0.5
					cost = 0
				}
			}
			254 = { #Calascandar
				add_culture_construction = {
					speed = 0.5
					cost = 0
				}
			}
		}
	}
	
	B66_court_the_clans = {
		icon = mission_noble_council
		position = 8
		required_missions = { B66_havoric_influence }
		provinces_to_highlight = {
			OR = {
				area = north_ibevar_area
				area = south_ibevar_area
				area = teagansfield_area
				area = bennonhill_area
				province_id = 314
				province_id = 311
				province_id = 912
				province_id = 308
				province_id = 266
				province_id = 260
				province_id = 911
				province_id = 262
				province_id = 254
			}
			NOT = {
				has_owner_accepted_culture = yes
				has_owner_culture = yes
			}
		}
		trigger = {
			adm_power = 50
			num_of_owned_provinces_with = {
				value = 15
				culture = havoric
			}
			custom_trigger_tooltip = { #All 'dejure' Havoral land is accepted culture or Havoric and NOT Esmari
				tooltip = havoral_all_dejure_havoral_is_havoric_tt
				north_ibevar_area = {
					type = all
					owned_by = ROOT
					OR = {
						culture = havoric
						has_owner_accepted_culture = yes
					}
					NOT = {
						culture = esmari
					}
				}
				south_ibevar_area = {
					type = all
					owned_by = ROOT
					OR = {
						culture = havoric
						has_owner_accepted_culture = yes
					}
					NOT = {
						culture = esmari
					}
				}
				teagansfield_area = {
					type = all
					owned_by = ROOT
					OR = {
						culture = havoric
						has_owner_accepted_culture = yes
					}
					NOT = {
						culture = esmari
					}
				}
				bennonhill_area = {
					type = all
					owned_by = ROOT
					OR = {
						culture = havoric
						has_owner_accepted_culture = yes
					}
					NOT = {
						culture = esmari
					}
				}
				314 = { #Teinmas
					owned_by = ROOT
					OR = {
						culture = havoric
						has_owner_accepted_culture = yes
					}
					NOT = {
						culture = esmari
					}
				}
				311 = { #Ashfield
					owned_by = ROOT
					OR = {
						culture = havoric
						has_owner_accepted_culture = yes
					}
					NOT = {
						culture = esmari
					}
				}
				912 = { #Anvilwright
					owned_by = ROOT
					OR = {
						culture = havoric
						has_owner_accepted_culture = yes
					}
					NOT = {
						culture = esmari
					}
				}
				308 = { #Silverforge
					owned_by = ROOT
					OR = {
						culture = havoric
						has_owner_accepted_culture = yes
					}
					NOT = {
						culture = esmari
					}
				}
				266 = { #Esmaraine
					owned_by = ROOT
					OR = {
						culture = havoric
						has_owner_accepted_culture = yes
					}
					NOT = {
						culture = esmari
					}
				}
				260 = { #Gabmorionn
					owned_by = ROOT
					OR = {
						culture = havoric
						has_owner_accepted_culture = yes
					}
					NOT = {
						culture = esmari
					}
				}
				911 = { #Telgeir
					owned_by = ROOT
					OR = {
						culture = havoric
						has_owner_accepted_culture = yes
					}
					NOT = {
						culture = esmari
					}
				}
				262 = { #Aranmas
					owned_by = ROOT
					OR = {
						culture = havoric
						has_owner_accepted_culture = yes
					}
					NOT = {
						culture = esmari
					}
				}
				254 = { #Calascandar
					owned_by = ROOT
					OR = {
						culture = havoric
						has_owner_accepted_culture = yes
					}
					NOT = {
						culture = esmari
					}
				}
			}
		}
		effect = {
			add_adm_power = -50
			add_government_reform = havoral_clanship_authority_reform
		}
	}
	
	B66_riverland_prosperity = {
		icon = mission_seize_the_bengal_coast
		position = 9
		required_missions = { B66_influencing_the_cities }
		provinces_to_highlight = {
			OR = {
				province_id = 266
				province_id = 911
			}
		}
		trigger = {
			266 = { #Esmaraine
				culture = havoric
				development = 45
				has_production_building_trigger = yes
				has_tax_building_trigger = yes
				has_trade_building_trigger = yes
				has_building = mills
			}
			911 = { #Telgeir
				culture = havoric
				development = 45
				has_production_building_trigger = yes
				has_tax_building_trigger = yes
				has_trade_building_trigger = yes
				OR = {
					has_building = weapons
					has_building = furnace
				}
			}
		}
		effect = {
			custom_tooltip = havoral_all_havoric_riverland_prosperity_tt
			hidden_effect = {
				esmaria_region = {
					limit = {
						culture = havoric
					}
					add_province_modifier = {
						name = havoral_riverland_prosperity
						duration = 9125
					}
				}
			}
		}
	}
	
	B66_havoric_river_parties = {
		icon = mission_develop_nevas_port
		position = 11
		required_missions = {
			B66_riverland_prosperity
			B66_esmari_consolidation
		}
		trigger = {
			num_of_owned_provinces_with = {
				value = 6
				culture = havoric
				development = 40
				region = esmaria_region
			}
		}
		effect = {
			custom_tooltip = havoral_havoric_river_parties_tt
			set_global_flag = havoral_havoric_river_parties_new_events
		}
	}
}

havoral_3 = {
	slot = 3
	generic = no
	ai = yes
	potential = {
		tag = B66
	}
	has_country_shield = yes
	
	B66_giberdi_gnomes = {
		icon = mission_scholar_officials
		position = 4
		required_missions = { A39_clan_autonomy }
		trigger = {
			owns_core_province = 271 #Giberd
			OR = {
				AND = {
					271 = { #Giberd
						culture = imperial_gnome
					}
					OR = {
						medium_tolerance_gnomish_race_trigger = yes
						high_tolerance_gnomish_race_trigger = yes
					}
				}
				271 = { #Giberd
					NOT = {
						culture = imperial_gnome
					}
				}
				accepted_culture = imperial_gnome
			}
		}
		effect = {
			if = {
				limit = {
					271 = { #Giberd
						culture = imperial_gnome
					}
					NOT = {
						accepted_culture = imperial_gnome
					}
				}
				add_accepted_culture = imperial_gnome
			}
			else = {
				add_dip_power = 50
			}
			mission_reward_artifice_points_2 = yes
		}
	}
	
	B66_elves_of_the_vale = {
		icon = mission_secure_khandesh
		position = 5
		required_missions = { B66_giberdi_gnomes }
		trigger = {
			dip_power = 50
			prestige = 25
		}
		effect = {
			country_event = {
				id = bennon_events.1
			}
		}
	}
	
	B66_dwarves_of_havoral = {
		icon = mission_treasure_room
		position = 6
		required_missions = { B66_elves_of_the_vale }
		trigger = {
			owns_core_province = 912 #Anvilwright
			OR = {
				AND = {
					912 = { #Anvilwright
						culture = silver_dwarf
					}
					OR = {
						medium_tolerance_dwarven_race_trigger = yes
						high_tolerance_dwarven_race_trigger = yes
					}
				}
				912 = { #Anvilwright
					NOT = {
						culture = silver_dwarf
					}
				}
				accepted_culture = silver_dwarf
			}
		}
		effect = {
			if = {
				limit = {
					912 = { #Anvilwright
						culture = silver_dwarf
					}
					NOT = {
						accepted_culture = silver_dwarf
					}
				}
				add_accepted_culture = silver_dwarf
			}
			else = {
				add_dip_power = 50
			}
			263 = { #Oldpassage
				add_dwarven_minority_size_effect = yes
			}
			268 = { #Bennon
				add_dwarven_minority_size_effect = yes
				add_dwarven_minority_size_effect = yes
			}
		}
	}
	
	B66_newcomers_integrated = {
		icon = mission_hanseatic_city
		position = 7
		required_missions = { B66_dwarves_of_havoral }
		trigger = {
			OR = {
				medium_tolerance_dwarven_race_trigger = yes
				high_tolerance_dwarven_race_trigger = yes
			}
			OR = {
				medium_tolerance_gnomish_race_trigger = yes
				high_tolerance_gnomish_race_trigger = yes
			}
		}
		effect = {
			custom_tooltip = havoral_newcomers_integrated_tt
			hidden_effect = {
				every_owned_province = {
					limit = {
						OR = {
							culture = imperial_gnome
							culture = silver_dwarf
							culture = moon_elf
						}
						has_owner_accepted_culture = yes
					}
					add_province_modifier = {
						name = havoral_havoric_integration
						duration = 14610
					}
				}
			}
		}
	}
	
	B66_nestled_against_a_shield = {
		icon = mission_colonial
		position = 8
		required_missions = { 
			B66_havoric_influence
			B66_the_greater_mountain_chain
		}
		provinces_to_highlight = {
			OR = {
				province_id = 422
				province_id = 423
			}
			NOT = {
				owned_by = ROOT
			}
		}
		trigger = {
			dip_power = 100
			rotwall_area = {
				type = all
				owned_by = ROOT
				is_core = ROOT
			}
			422 = { #Tombsvale
				NOT = {
					has_construction = building
					has_construction = missionary
					has_construction = culture
				}
			}
			423 = { #Arca Aldresia
				NOT = {
					has_construction = building
					has_construction = missionary
					has_construction = culture
				}
			}
		}
		effect = {
			add_dip_power = -100
			422 = { #Tombsvale
				add_culture_construction = {
					speed = 0.5
					cost = 0
				}
			}
			423 = { #Arca Aldresia
				add_culture_construction = {
					speed = 0.5
					cost = 0
				}
			}
		}
	}
	
	B66_moving_to_the_marches = {
		icon = mission_expand_inland
		position = 9
		required_missions = {
			B66_nestled_against_a_shield
			B66_marching_into_dark_lands
		}
		provinces_to_highlight = {
			province_id = 425
			NOT = {
				AND = {
					owned_by = ROOT
					is_core = ROOT
				}
			}
		}
		trigger = {
			dip_power = 50
			owns_core_province = 425
			425 = { #Corvurian Marches
				NOT = {
					has_construction = building
					has_construction = missionary
					has_construction = culture
				}
			}
		}
		effect = {
			add_dip_power = -50
			425 = { #Corvurian Marches
				add_culture_construction = {
					speed = 0.5
					cost = 0
				}
			}
		}
	}
	
	B66_havoric_migration = {
		icon = mission_forest_pilgrim
		position = 10
		required_missions = {
			B66_moving_to_the_marches
			B66_claiming_the_curve
		}
		provinces_to_highlight = {
			OR = {
				area = blackwoods_area
				province_id = 438
			}
			NOT = {
				owned_by = ROOT
			}
		}
		trigger = {
			dip_power = 150
			blackwoods_area = {
				type = all
				owned_by = ROOT
				is_core = ROOT
				NOT = {
					has_construction = building
					has_construction = missionary
					has_construction = culture
				}
			}
			owns_core_province = 438
			438 = { #Silcorvur
				NOT = {
					has_construction = building
					has_construction = missionary
					has_construction = culture
				}
			}
		}
		effect = {
			add_dip_power = -150
			blackwoods_area = {
				add_culture_construction = {
					speed = 0.5
					cost = 0
				}
			}
			438 = { #Silcorvur
				add_culture_construction = {
					speed = 0.5
					cost = 0
				}
			}
		}
	}
	
	B66_new_mountainfolk_stronghold = {
		icon = mission_fortify_rajputana
		position = 11
		required_missions = { B66_havoric_migration }
		trigger = {
			436 = { #Karn's Hold
				owned_by = ROOT
				development = 25
				culture = havoric
				has_production_building_trigger = yes
				has_tax_building_trigger = yes
				has_trade_building_trigger = yes
				has_fort_building_trigger = yes
			}
			429 = { #Holstead
				owned_by = ROOT
				development = 20
				culture = havoric
			}
			438 = { #Silcorvur
				owned_by = ROOT
				development = 20
				culture = havoric
			}
		}
		effect = {
			436 = { #Karn's Hold
				add_province_modifier = {
					name = havoral_mountainfolk_stronghold
					duration = -1
				}
			}
			429 = { #Holstead
				add_province_modifier = {
					name = bennon_goat_pastures
					duration = -1
				}
			}
			438 = { #Silcorvur
				add_province_modifier = {
					name = bennon_goat_pastures
					duration = -1
				}
			}
		}
	}
}

havoral_4 = {
	slot = 4
	generic = no
	ai = yes
	potential = {
		tag = B66
	}
	has_country_shield = yes
	
	B66_filling_the_vale = {
		icon = mission_conquer_lanka
		position = 6
		required_missions = { B66_elves_of_the_vale }
		trigger = {
			num_of_owned_provinces_with = {
				value = 4
				region = forlorn_vale_region
				culture = havoric
				development = 20
				has_tax_building_trigger = yes
				has_production_building_trigger = yes
			}
		}
		effect = {
			whistlevale_area = {
				add_permanent_claim = ROOT
			}
			cursewood_area = {
				add_permanent_claim = ROOT
			}
			rotwall_area = {
				add_permanent_claim = ROOT
			}
		}
	}
	
	B66_the_greater_mountain_chain = {
		icon = mission_junnagadh_fort
		position = 7
		required_missions = { B66_filling_the_vale }
		provinces_to_highlight = {
			area = rotwall_area
			NOT = {
				AND = {
					owned_by = ROOT
					is_core = ROOT
				}
			}
		}
		trigger = {
			rotwall_area = {
				type = all
				owned_by = ROOT
				is_core = ROOT
			}
		}
		effect = {
			corvurian_plains_area = {
				add_permanent_claim = ROOT
			}
		}
	}
	
	B66_marching_into_dark_lands = {
		icon = mission_mounted_battle
		position = 8
		required_missions = { B66_the_greater_mountain_chain }
		trigger = {
			OR = {
				OR = {
					war_with = A59
					425 = {
						owner = {
							war_with = ROOT
						}
					}
				}
				425 = {
					country_or_non_sovereign_subject_holds = ROOT
				}
			}
		}
		effect = {
			add_country_modifier = {
				name = havoral_steel_yourselves
				duration = 3650
			}
		}
	}
	
	B66_claiming_the_curve = {
		icon = mission_assemble_an_army
		position = 9
		required_missions = { B66_marching_into_dark_lands }
		provinces_to_highlight = {
			area = corvurian_plains_area
			NOT = {
				AND = {
					owned_by = ROOT
					is_core = ROOT
				}
			}
		}
		trigger = {
			OR = {
				corvurian_plains_area = {
					type = all
					owned_by = ROOT
					is_core = ROOT
				}
				corvurian_plains_area = {
					type = all
					country_or_non_sovereign_subject_holds = ROOT
				}
			}
		}
		effect = {
			dostanor_region = {
				add_permanent_claim = ROOT
			}
		}
	}
	
	B66_the_godshield_secured = {
		icon = mission_heated_battle
		position = 11
		required_missions = {
			B66_claiming_the_curve
			B66_havoric_migration
		}
		provinces_to_highlight = {
			region = dostanor_region
			NOT = {
				AND = {
					owned_by = ROOT
					is_core = ROOT
				}
			}
		}
		trigger = {
			dostanor_region = {
				type = all
				owned_by = ROOT
				is_core = ROOT
			}
			num_of_owned_provinces_with = {
				value = 5
				region = dostanor_region
				culture = havoric
				nationalism = 0
			}
		}
		effect = {
			add_country_modifier = {
				name = havoral_mountainfolk_consolidation
				duration = -1
			}
		}
	}
}

havoral_5 = {
	slot = 5
	generic = no
	ai = yes
	potential = {
		tag = B66
	}
	has_country_shield = yes
	
	B66_gaze_upon_a_slaughter = {
		icon = mission_burning_man
		position = 7
		required_missions = { B66_filling_the_vale }
		provinces_to_highlight = {
			province_id = 248
			NOT = {
				AND = {
					owned_by = ROOT
					is_core = ROOT
				}
			}
		}
		trigger = {
			owns_core_province = 248 #Freetower
		}
		effect = {
			231 = { #Craven's Walk
				add_permanent_claim = ROOT
			}
			230 = { #Rottenstep
				add_permanent_claim = ROOT
			}
		}
	}
	
	B66_the_archetypal_hero = {
		icon = mission_rb_conquer_the_highlands
		position = 8
		required_missions = { B66_gaze_upon_a_slaughter }
		provinces_to_highlight = {
			province_id = 230
			OR = {
				culture_group = orcish
				religion_group = orcish
				NOT = { owned_by = ROOT }
				NOT = { is_core = ROOT }
			}
		}
		trigger = {
			owns_core_province = 230 #Rottenstep
			230 = {
				NOT = {
					culture_group = orcish
					religion_group = orcish
				}
			}
			treasury = 200
		}
		effect = {
			add_treasury = -200
			230 = { #Rottenstep
				add_province_modifier = {
					name = havoral_memorial_to_sir_frederic
					duration = -1
				}
			}
		}
	}
}
