kob_2_a = {
	slot = 2
	generic = no
	ai = yes
	has_country_shield = yes
	potential = {
		OR = {
			tag = Z38
			tag = A26
			tag = A27
			tag = A28
		}
		
	}

	Z38_audacity_red = {
		icon = mission_redscales
		position = 1

		provinces_to_highlight = {
			OR = {
				area = dragondowns_area
				province_id = 170
				province_id = 173
				province_id = 174
				province_id = 176
				province_id = 177
				province_id = 178
				province_id = 179
				province_id = 180
				province_id = 345
			}
		}

		trigger = {
			OR = {
				power_projection = 25
				custom_trigger_tooltip = {
					tooltip = owned_redscales_tt
					dragondowns_area = { type = all owned_by = ROOT }
					170 = { owned_by = ROOT }
					173 = { owned_by = ROOT }
					174 = { owned_by = ROOT }
					176 = { owned_by = ROOT }
					177 = { owned_by = ROOT }
					178 = { owned_by = ROOT }
					179 = { owned_by = ROOT }
					180 = { owned_by = ROOT }
					345 = { owned_by = ROOT }
					any_owned_province = {
						has_province_flag = kobold_traps_lvl_2_or_more
						OR = {
							area = dragondowns_area
							province_id = 170
							province_id = 173
							province_id = 174
							province_id = 176
							province_id = 177
							province_id = 178
							province_id = 179
							province_id = 180
							province_id = 345
						}
					}
				}
			}
		}
		effect = {
			add_adm_power = 100
			gnomish_pass_area = { add_permanent_claim = ROOT }
		}
	}

	Z38_magic_and_the_pass = {
		icon = mission_crystal_focus
		position = 2
		required_missions = { 
			Z38_audacity_red
		}

		provinces_to_highlight = {
			OR = {
				province_id = 167
				province_id = 146
			}
			OR = {
				NOT = { owned_by = ROOT }
				NOT = { has_province_flag = has_kobold_traps }
			}
		}

		trigger = {
			167 = { # Royvibobb
			owned_by = ROOT 
				custom_trigger_tooltip = {
					tooltip = has_kobold_traps_tt 
					has_province_flag = has_kobold_traps
				}
			}
			146 = { # Baycodds
			owned_by = ROOT 
				custom_trigger_tooltip = {
					tooltip = has_kobold_traps_tt 
					has_province_flag = has_kobold_traps
				}
			}
			has_institution = feudalism
			OR = {
				estate_loyalty = {
					estate = estate_mages
					loyalty = 50
				}
				NOT = { has_estate = estate_mages }
			}
		}
		effect = {
			146 = { add_base_production = 2 }
			custom_tooltip = innovation_per_trap_level_tt 
			146 = {
				trigger_switch = {
					on_trigger = has_province_modifier
					kobold_traps_lvl_1 = { ROOT = { change_innovativeness = 2 } }
					kobold_traps_lvl_2 = { ROOT = { change_innovativeness = 4 } }
					kobold_traps_lvl_3 = { ROOT = { change_innovativeness = 6 } }
					kobold_traps_lvl_4 = { ROOT = { change_innovativeness = 8 } }
				}
			}
			167 = {
				trigger_switch = {
					on_trigger = has_province_modifier
					
					kobold_traps_lvl_1 = { ROOT = { change_innovativeness = 2 } }
					kobold_traps_lvl_2 = { ROOT = { change_innovativeness = 4 } }
					kobold_traps_lvl_3 = { ROOT = { change_innovativeness = 6 } }
					kobold_traps_lvl_4 = { ROOT = { change_innovativeness = 8 } }
				}
			}
		}
	}

	Z38_technology_and_trade = {
		icon = mission_mal_riches_of_trade
		position = 3
		required_missions = { 
			Z38_magic_and_the_pass
		}

		provinces_to_highlight = {
			province_id = 1294
			NOT = {
				trade_share = {
					country = ROOT
					share = 40
				}
			}
		}
		trigger = {
			1294 = {
				trade_share = {
					country = ROOT
					share = 40
				}
			}

			NOT = { has_country_modifier = racial_pop_gnomish_purge }
			NOT = { has_country_modifier = racial_pop_gnomish_expulsion }

			any_known_country = {
				NOT = { culture_group = kobold } 
				has_opinion = {
					who = ROOT
					value = -50
				}
			}
		}
		effect = {
			add_adm_power = 50
			custom_tooltip = institution_from_diplomacy_tt 
			hidden_effect = {
				every_known_country = {
					limit = {
						NOT = { culture_group = kobold } 
						has_opinion = {
							who = ROOT
							value = -50
						}
					}
					ROOT = {
						capital_scope = {
							area = {
								if = {
									limit = { is_institution_enabled = printing_press }
									add_institution_embracement = {
										which = printing_press
										value = 20
									}
								}
								if = {
									limit = { is_institution_enabled = new_world_i }
									add_institution_embracement = {
										which = new_world_i
										value = 20
									}
								}
								if = {
									limit = { is_institution_enabled = renaissance }
									add_institution_embracement = {
										which = renaissance
										value = 20
									}
								}
								add_institution_embracement = {
									which = feudalism
									value = 20
								}								
							}
						}
					}
				}
			}
			169 = { add_permanent_claim = ROOT }
		}
	}

	Z38_a_malignant_whisper = {
		icon = mission_whisper
		position = 4
		required_missions = { 
			Z38_technology_and_trade
		}

		provinces_to_highlight = {
			province_id = 169
			NOT = { owned_by = ROOT }
		}

		trigger = {
			169 = {
				owned_by = ROOT
				NOT = { unrest = 1 }
			}

			A06 = { exists = no }
			A79 = { exists = no }

			NOT = { has_country_modifier = racial_pop_gnomish_purge }
			NOT = { has_country_modifier = racial_pop_gnomish_expulsion }

			has_institution = renaissance
		}
		effect = {
			kdc_remove_aspect_1 = yes
			unlock_kobold_dragon_cult_for_colour_slot_upgrade = {
				COLOUR = blue
				SLOT = 1
				UPGRADE = upgraded
			}
			medium_increase_of_gnomish_tolerance_effect = yes
		}
	}
}

kob_3_a = {
	slot = 3
	generic = no
	ai = yes
	has_country_shield = yes
	potential = {
		OR = {
			tag = Z38
			tag = A26
			tag = A27
			tag = A28
		}
	}
	
	Z38_sagacity_blue = {
		icon = mission_bluescales
		position = 1

		provinces_to_highlight = {
			OR = {
				area = dragonmaw_area
				area = dragonheart_area
				area = dragondepth_area
				province_id = 183
				province_id = 3362
				province_id = 182
				province_id = 184
			}
		}

		trigger = {
			OR = {
				custom_trigger_tooltip = {
					tooltip = num_of_aspects_tt
					num_of_aspects = 3
				}
				custom_trigger_tooltip = {
					tooltip = owned_bluescales_tt
					dragondepth_area = { type = all owned_by = ROOT }
					dragonheart_area = { type = all owned_by = ROOT }
					dragonmaw_area = { type = all owned_by = ROOT }
					182 = { owned_by = ROOT }
					183 = { owned_by = ROOT }
					184 = { owned_by = ROOT }
					3362 = { owned_by = ROOT }
					any_owned_province = {
						has_province_flag = kobold_traps_lvl_2_or_more
						OR = {
							area = dragondepth_area
							area = dragonheart_area
							area = dragonmaw_area
							province_id = 182
							province_id = 183
							province_id = 184
							province_id = 3362
						}
					}
				}
			}
		}

		effect = {
			add_dip_power = 100
			custom_tooltip = dragon_coast_kobold_provinces_tt 
			hidden_effect = {
				western_cannor_superregion = {
					limit = {
						culture_group = kobold
					}
					add_permanent_claim = ROOT		
				}
			}
		}
	}

	Z38_a_purple_union = {
		icon = hungarian_union
		position = 2
		required_missions = { 
			Z38_audacity_red
			Z38_sagacity_blue
		}

		provinces_to_highlight = {
			OR = {
				area = dragondepth_area
				area = dragonheart_area
				area = dragonmaw_area
				area = dragonheights_area
				area = dragonspine_area
				area = dragondowns_area
				province_id = 170
				province_id = 176
				province_id = 177
				province_id = 178
			}
			NOT = { owned_by = ROOT }
		}

		trigger = {
			
			custom_trigger_tooltip = {
				tooltip = accepts_a_kobold_not_your_own_tt
				OR = {
					AND = {
						tag = A28
						OR = {
							accepted_culture = bluescale_kobold
							accepted_culture = redscale_kobold
						}
					}
					AND = {
						tag = A27
						OR = {
							accepted_culture = redscale_kobold
							accepted_culture = greenscale_kobold
						}
					}
					AND = {
						tag = A26
						OR = {
							accepted_culture = bluescale_kobold
							accepted_culture = greenscale_kobold
						}
					}
					tag = Z38
				}
			}

			OR = {
				estate_loyalty = {
					estate = estate_monstrous_tribes
					loyalty = 60
				}
				NOT = { has_estate = estate_monstrous_tribes }
			}

			custom_trigger_tooltip = {
				tooltip = owned_DC_peninsula_tt 
				AND = {
					dragondepth_area = { type = all owned_by = ROOT }
					dragonheart_area = { type = all owned_by = ROOT }
					dragonmaw_area = { type = all owned_by = ROOT }
					dragonheights_area = { type = all owned_by = ROOT }
					dragonspine_area = { type = all owned_by = ROOT }
					dragondowns_area = { type = all owned_by = ROOT }
					170 = { owned_by = ROOT }
					176 = { owned_by = ROOT }
					177 = { owned_by = ROOT }
					178 = { owned_by = ROOT }
				}
			}


		}
		effect = {
			add_country_modifier = {
				name = Z38_call_of_the_dragon_1
				duration = -1
			}
			custom_tooltip = lowered_autonomy_blue_red_tt
			hidden_effect = {
				every_owned_province = {
					limit = {
						OR = {
							culture = bluescale_kobold
							culture = redscale_kobold
						}
					}
					add_local_autonomy = -25
				}
			}

		}
	}

	Z38_malliaths_call = {
		icon = mission_arise
		position = 3
		required_missions = { 
			Z38_a_purple_union
		}

		trigger = {
			189 = {
				check_variable = { dragon_cult_hoard = 500 }
				has_no_ongoing_construction = yes
			}
		}

		effect = {
			define_advisor = {
				type = inquisitor
				skill = 1
				culture = bluescale_kobold
				religion = kobold_dragon_cult
				cost_multiplier = 0.5
			}

			189 = {
				add_or_upgrade_tax_building = yes
			}
		}
	}

	Z38_the_meaning_of_dragonfire = {
		icon = mission_rb_control_state_religion
		position = 4
		required_missions = { 
			Z38_malliaths_call
		}

		trigger = {
			religious_unity = 0.7
			custom_trigger_tooltip = {
				tooltip = missionaries_two_hint_tt
				num_of_missionaries = 2
			}
			
		}
		effect = {
			country_event = { id = flavour_kobildzan.1 }
		}
	}

	Z38_heirs_of_dragonkind = {
		icon = mission_kobold
		position = 5
		required_missions = { 
			Z38_the_meaning_of_dragonfire
			Z38_the_shape_of_dalaire
			Z38_a_malignant_whisper
		}

		trigger = {
			is_at_war = no
			189 = {
				check_variable = { dragon_cult_hoard = 2000 }
			}
			any_owned_province = {
				OR = {
					culture_group = alenic
					culture_group= halfling
				}
			}
			OR = {
				is_ahead_of_time_in_technology = { tech = adm }
				is_ahead_of_time_in_technology = { tech = dip }
				is_ahead_of_time_in_technology = { tech = mil }
			}
			any_subject_country = {
				capital_scope = { colonial_region = colonial_dalaire }
				is_colonial_nation = yes
			}
		}
		effect = {
			country_event = { id = flavour_kobildzan.2 days = 1 }
			random_subject_country = {
				limit = {
					is_colonial_nation_of = ROOT
					capital_scope = { colonial_region = colonial_dalaire }
				}

				add_country_modifier = {
					name = Z38_shape_dalaire_modifier
					duration = 18250
				}
			}
			if = {
				limit = { NOT = { tag = Z38 } }
				189 = {
					move_capital_effect = yes
					add_base_tax = 4
					add_base_production = 4
					add_base_manpower = 4
				}
				change_tag = Z38
				hidden_effect = { restore_country_name = yes }
				custom_tooltip = tooltip_kobildzani_culture_provinces
				hidden_effect = {
					every_owned_province = {
						limit = {
							culture_group = kobold
						}
						change_culture = kobildzani_kobold
					}
				}
				primary_and_ruler_culture_change = { race = kobold new_culture = kobildzani_kobold }
				remove_non_electors_emperors_from_empire_effect = yes
				if = {
					limit = {
						NOT = { government_rank = 3 }
					}
					set_government_rank = 3
				}
				dragon_coast_region = {
					limit = {
						NOT = { owned_by = ROOT }
						NOT = { is_claim = ROOT }
					}
					add_permanent_claim = Z38
				}
				add_prestige = 25
				if = {
					limit = { has_custom_ideas = no }
					country_event = { id = ideagroups.1 } #Swap Ideas
				}
				add_country_modifier = {
					name = "centralization_modifier"
					duration = 7300
				}
				set_global_flag = formed_kobildzan_flag
				lock_racial_admin = yes
			}
		}
	}
}
kob_4_a = {
	slot = 4
	generic = no
	ai = yes
	has_country_shield = yes
	potential = {
		OR = {
			tag = Z38
			tag = A26
			tag = A27
			tag = A28
		}
	}

	Z38_tenacity_green = {
		icon = mission_greenscales
		position = 1

		provinces_to_highlight = {
			area = coddorran_heights_area
		}

		trigger = {
			OR = {
				any_owned_province = { has_province_modifier = kobold_traps_lvl_4 }
				custom_trigger_tooltip = {
					tooltip = owned_greenscales_tt
					coddorran_heights_area = { type = all owned_by = ROOT }
					OR = {
						197 = { has_province_flag = kobold_traps_lvl_2_or_more }
						694 = { has_province_flag = kobold_traps_lvl_2_or_more }
					}
				}
			}
		}
		effect = {
			add_mil_power = 100
			storm_isles_area = { add_permanent_claim = ROOT }
			westmoor_proper_area = { add_permanent_claim = ROOT }
			695 = { add_permanent_claim = ROOT }
			discover_province = 1324
		}
	}

	Z38_holding_on = {
		icon = mission_fortify_rajputana
		position = 2
		required_missions = { 
			Z38_tenacity_green
		}

		trigger = {
			is_at_war = no

			OR = {
				has_country_modifier = trap_mastery_lvl_1
				has_country_modifier = trap_mastery_lvl_2
				has_country_modifier = trap_mastery_lvl_3
			}

			num_of_total_ports = 10
		}

		effect = {
			add_stability_or_adm_power = yes
			add_war_exhaustion = -5
			random_owned_province = {
				limit = {
					has_province_modifier = kobold_traps_lvl_4
				}
				add_base_production = 2
			}
		}
	}

	Z38_seasick_green = {
		icon = mission_launch_a_flagship
		position = 3
		required_missions = { 
			Z38_holding_on
		}

		provinces_to_highlight = {
		}
		trigger = {
			NOT = { A13 = { navy_size = ROOT } }
			NOT = { Z22 = { navy_size = ROOT } }
			NOT = { A06 = { navy_size = ROOT } }
			has_idea = colonial_ventures
		}

		effect = {
			if = {
				limit = { 1001 = { is_city = no is_colony = no } }
				1001 = { create_colony = 400 }
			} else_if = {
				limit = { 1205 = { is_city = no is_colony = no } }
				1205 = { create_colony = 400 }
			}
			else = {
				add_claim = 1001
				add_claim = 1205
			}
			
			add_country_modifier = {
				name = Z38_seasick_green_modifier
				duration = 10950
			}

			if = {
				limit = {
					has_estate = estate_mages
					has_estate = estate_monstrous_tribes
				}

				set_estate_privilege = estate_mages_monstrous_explorers
			}
		}
	}

	Z38_the_shape_of_dalaire = {
		icon = mission_rb_colonise_canada
		position = 4
		required_missions = { 
			Z38_seasick_green
		}

		provinces_to_highlight = {
			OR = {
				AND = {
					colonial_region = colonial_dalaire
					NOT = { has_discovered = ROOT }
				}
				AND = {
					OR = {
						province_id = 1202
						province_id = 1214
					}
					NOT = { country_or_subject_holds = ROOT }
				}
			}
		}

		trigger = {
			OR = {
				owns_or_subject_of = 1202
				owns_or_subject_of = 1214
			}
			
			colonial_dalaire = {
				type = all
				custom_trigger_tooltip = {
					tooltip = has_discovered_coastal_tt 
					OR = {
						has_port = no
						has_discovered = ROOT
					}
				}
			} 
		}

		effect = {
			if = {
				limit = { owns_or_subject_of = 1202 }
				1202 = {
					add_base_tax = 2
					add_base_production = 2
					add_base_manpower = 2
				}
			}
			if = {
				limit = { owns_or_subject_of = 1214 }
				1214 = {
					add_base_tax = 2
					add_base_production = 2
					add_base_manpower = 2
				}
			}
			frondvagr_area = {
				add_permanent_province_modifier = {
					name = Z38_kobold_migration_wave
					duration = 10950
				}
				if = {
					limit = { is_empty = yes }
					add_kobold_minority_size_effect = yes
				}
			}
			flottnord_area = {
				add_permanent_province_modifier = {
					name = Z38_kobold_migration_wave
					duration = 10950
				}
				if = {
					limit = { is_empty = yes }
					add_kobold_minority_size_effect = yes
				}
			}			
		}
	}
}

Kob_5a = {
	slot = 5
	generic = no
	ai = yes
	has_country_shield = yes
	potential = { 
		OR = {
			tag = A26
			tag = A27
			tag = A28
			tag = Z38
		}
	}
}

kob_1_b = {
	slot = 1
	generic = no
	ai = yes
	potential = {
		tag = Z38
	}
	has_country_shield = yes
	Z38_meet_your_idols = {
		icon = mission_jorgurem_the_frozen
		position = 6
		required_missions = { 
			Z38_heirs_of_dragonkind
		}

		provinces_to_highlight = {
			province_id = 1191
		}

		trigger = {
			1191 = { # Svemel
				OR = {
					owned_by_subject_of = ROOT
					owner = { 
						has_opinion = {
							who = ROOT
							value = 50
						} 
					}
				}
			}

			diplomatic_reputation = 1

			any_subject_country = {
				is_colonial_nation_of = ROOT
				capital_scope = { colonial_region = colonial_broken_sea }
			}
		}

		effect = {
			country_event = { id = flavour_kobildzan.4 }
		}
	}

	Z38_a_pledge = {
		icon = mission_swear_fealty_knight
		position = 7
		required_missions = { 
			Z38_meet_your_idols
		}

		provinces_to_highlight = {
			OR = {
				AND = {
					region = rzenta_region
					NOT = { 
						owned_by = ROOT
						owned_by_subject_of = ROOT 
					}
				}

				AND = {
					province_id = 1191
					has_dlc = "Leviathan"
					NOT = {
						has_great_project = {
							type = ynnic_grand_temple_svemel
							tier = 1
						}
					}
				}
			}
		}

		trigger = {
			rzenta_region = {
				type = all
				OR = {
					is_city = no
					owned_by = ROOT
					owned_by_subject_of = ROOT
				}
			}

			OR = {
				treasury = 1000
				1191 = {
					has_great_project = {
						type = ynnic_grand_temple_svemel
						tier = 1
					}
				}
			}

			H24 = {
				OR = {
					exists = no
					is_subject_of = ROOT
				}
			}	
		}

		effect = {

			country_event = { id = flavour_kobildzan.8 }

			if = {
				limit = {
					NOT = {
						1191 = {
							has_great_project = {
								type = ynnic_grand_temple_svemel
								tier = 1
							}
						}
					}
				}
				add_treasury = -1000
			}
			custom_tooltip = eordand_discovering_tt
			hidden_effect = {
				eordand_superregion = {
					limit = { trade_goods = precursor_relics }
					add_permanent_claim = ROOT
					discover_country = ROOT
				}
			}
		}
	}

	Z38_supply_the_crusade = {
		icon = support_the_bulk_trades
		position = 9
		required_missions = { 
			Z38_a_pledge
		}

		provinces_to_highlight = {
			OR = {
				AND = {
					region = dolindha_region
					is_city = yes
					OR = {
						NOT = { owned_by_subject_of = ROOT }
						NOT = { religion = kobold_dragon_cult religion = drozma_tur }
					}
				}

				AND = {
					province_id = 1191
					has_dlc = "Leviathan"
					NOT = {
						has_great_project = {
							type = ynnic_grand_temple_svemel
							tier = 2
						}
					}
				}

				AND = {
					OR = {
						province_id = 1492
						province_id = 1576
						province_id = 1165
					}
					NOT = { trade_share = { country = ROOT share = 50 } }
				}
			}
		}

		trigger = {
			custom_trigger_tooltip = {
				tooltip = dolindha_controls_all_tt 
				dolindha_region = {
					type = all
					OR = {
						is_city = no
						AND = {
							owned_by_subject_of = ROOT
							OR = { religion = kobold_dragon_cult religion = drozma_tur }
						}
					}
				}
			}
			

			if = {
				limit = {
					has_dlc = "Leviathan"
				}
				OR = {
					treasury = 6000
					1191 = {
						has_great_project = {
							type = ynnic_grand_temple_svemel
							tier = 2
						}
					}
				}
			} else = {
				treasury = 6000
			}


			1165 = { trade_share = { country = ROOT share = 50 } }
			1492 = { trade_share = { country = ROOT share = 50 } }
			1576 = { trade_share = { country = ROOT share = 50 } }
		}
		
		effect = {
			if = {
				limit = {
					NOT = { 					
						1191 = {
							has_great_project = {
								type = ynnic_grand_temple_svemel
								tier = 2
							}
						} 
					}
				}
				add_treasury = -6000
			}
			tooltip = {
				add_country_modifier = {
					name = Z38_gospodh_1
					duration = -1
				}
			}
			H24 = {
				custom_tooltip = dd_unlock_artificery_tt 
				tooltip = {
					add_country_modifier = {
						name = Z38_kobolds_dominion
						duration = -1
					}
				}
			}
			hidden_effect = {
				H24 = {
					artifice_magic_switch_to_artificery_only_mode = yes
				}
			}
			ynn_superregion = {
				add_permanent_claim = H24
			}
			kdc_remove_aspect_2 = yes
			unlock_kobold_dragon_cult_for_colour_slot_upgrade = {
				COLOUR = green
				SLOT = 2
				UPGRADE = upgraded
			}
		}
	}
}

kob_2_b = {
	slot = 2
	generic = no
	ai = yes
	has_country_shield = yes
	potential = {
		tag = Z38
	}

	Z38_the_compendium_of_dragons = {
		icon = mission_book_of_royal_degrees
		position = 6
		required_missions = { 
			Z38_heirs_of_dragonkind
		}

		trigger = {
			innovativeness = 15
			126 = { religion = kobold_dragon_cult }
			167 = { religion = kobold_dragon_cult }
			169 = { religion = kobold_dragon_cult }

			OR = {
				faction_influence = { influence = 50 faction = tec_brilliance }
				faction_influence = { influence = 50 faction = tec_mechanists }
				faction_influence = { influence = 50 faction = tec_technomancy }
			}
		}

		effect = {
			country_event = { id = flavour_kobildzan.5 }
			unlock_government_reform = {
				government_reform = kobildzan_draconic_technopriests
			}
			hidden_effect = {
				if = {
					limit = { has_reform_on_level = 4 }
					add_government_reform = kobildzan_draconic_technopriests
				}			
			}
		}
	}

	Z38_a_step_into_the_draconic = {
		icon = mission_kobold
		position = 7
		required_missions = { 
			Z38_the_compendium_of_dragons
		}

		trigger = {
			estate_loyalty = {
				estate = estate_artificers
				loyalty = 60
			} 

			OR = {
				has_estate_privilege = artifice_invention_dragonblood_gene_warriors
				has_estate_privilege = artifice_invention_soarwing_grafts
				has_estate_privilege = artifice_invention_burrower_arms
				has_estate_privilege = artifice_invention_dragonscale_plating
				has_estate_privilege = artifice_invention_prehensile_tail_attachments
				has_estate_privilege = artifice_invention_artificial_egg_surrogates
				tier_2_artificer_estate = yes
				tier_3_artificer_estate = yes
			}
		}

		effect = {
			hidden_effect = {
				set_country_flag = unlocked_artifice_invention_kobildzan_draconic_ascension
			}
			set_estate_privilege = artifice_invention_kobildzan_draconic_ascension
			if = {
				limit = { has_country_flag = dragons_mean_power }
				add_country_modifier = {
					name = Z38_claws_of_power_regiment_mod
					duration = -1
				}
				hidden_effect = { set_country_flag = kobildzan_claws_of_power }
			}
			else = {
				hidden_effect = { set_country_flag = kobildzan_glidewing_membranes }
				tooltip = {
					add_country_modifier = {
						name = Z38_glidewing_membranes_dummy
						duration = -1
					}
				}
			}
			artifice_granted_10 = yes
			hidden_effect = { change_variable = { which = ArtificeDynamicInventionCost value = 10 } }
		}
	}

	Z38_relics_of_the_future = {
		icon = mission_magy
		position = 8
		required_missions = { 
			Z38_a_step_into_the_draconic
			Z38_a_pledge
		}

		provinces_to_highlight = {
			superregion = eordand_superregion
			trade_goods = precursor_relics
			OR = {
				NOT = { owned_by_subject_of = ROOT }
				NOT = { owned_by_subject_of = ROOT }
				NOT = { base_production = 8 }
				NOT = { has_production_building_trigger = yes }
			}
		}

		trigger = {
			num_of_provinces_owned_or_owned_by_non_sovereign_subjects_with = {
				value = 3
				trade_goods = precursor_relics
				superregion = eordand_superregion
				base_production = 8
				has_production_building_trigger = yes
			}
		}

		effect = {
			mission_reward_artifice_points_5 = yes

			if = {
				limit = { has_country_flag = dragons_mean_power }
				add_country_modifier = {
					name = Z38_ogre_sized_kobolds_regiment_mod
					duration = -1
				}
				hidden_effect = { set_country_flag = kobildzan_ogre_sized_kobolds }
	
			}
			else = {
				hidden_effect = { set_country_flag = kobildzan_detachable_extra_limbs }
				tooltip = {
					add_country_modifier = {
						name = Z38_detachable_extra_limbs_dummy
						duration = -1
					}
				}
			}
			artifice_granted_10 = yes
			hidden_effect = { change_variable = { which = ArtificeDynamicInventionCost value = 10 } }
			custom_tooltip = haraf_claims_tt
			hidden_effect = {
				H30 = { every_owned_province = { add_permanent_claim = ROOT } }
				H31 = { every_owned_province = { add_permanent_claim = ROOT } }
				H32 = { every_owned_province = { add_permanent_claim = ROOT } }			
				U31 = { every_owned_province = { add_permanent_claim = ROOT } }
			}
		}
	}
	Z38_the_artificer_ruinborn = {
		icon = mission_ynnic_knights
		position = 9
		required_missions = { 
			Z38_relics_of_the_future
		}

		trigger = {
			custom_trigger_tooltip = {
				tooltip = subject_broken_sea_tt
				any_subject_country = {
					num_of_cities = 10 
					capital_scope = {
					colonial_region = colonial_broken_sea 
					}
				}	
			}
			custom_trigger_tooltip = {
				tooltip = subject_eordand_tt
				any_subject_country = {
					num_of_cities = 10 
					capital_scope = {
					colonial_region = colonial_eordand
					}
				}
			}
			custom_trigger_tooltip = {
				tooltip = subject_haraf_tt
				any_subject_country = {
					num_of_cities = 10 
					capital_scope = {
					colonial_region = colonial_haraf 
					}
				}	
			}
			has_country_modifier = racial_focus_ruinborn
			H24 = {
				capital_scope = {
					OR = {
						current_institution = 100
						custom_trigger_tooltip = {
							tooltip = institution_spread_tt
							current_institution_growth = 12 
						}
					}
				}
			}
		}

		effect = {
			custom_tooltip = DD_brought_to_tech_level_tt 
			hidden_effect = {
				while = {
					limit = { mil_tech_is_inferior = { tag=H38 } }
					H38 = { add_mil_tech = 1 }
				}
				
				while = {
					limit = { adm_tech_is_inferior = { tag=H38 } }
					H38 = { add_adm_tech = 1 }
				}
				
				while = {
					limit = { dip_tech_is_inferior = { tag=H38 } }
					H38 = { add_dip_tech = 1 }
				}
			}

			add_country_modifier = {
				name = Z38_technological_union_of_north_aelantir
				duration = -1
			}

			every_subject_country = {
				add_country_modifier = {
					name = Z38_technological_union_of_north_aelantir
					duration = -1
				}
			}
		}
	}


	Z38_a_technocracy_for_all = {
		icon = mission_tech_stuff
		position = 10
		required_missions = { 
			Z38_the_artificer_ruinborn
		}

		provinces_to_highlight = {
			OR = {
				AND = {
					OR = {
						province_id = 2079
						province_id = 2083
						province_id = 2088
					}
					NOT = { owned_by = ROOT owned_by_subject_of = ROOT }
				}
				AND = {
					owned_by = H30
					has_port = yes
				}
				AND = {
					owned_by = H31
					has_port = yes
				}
				AND = {
					owned_by = H32
					has_port = yes
				}
				AND = {
					owned_by = U31
					has_port = yes
				}
			}
		}

		trigger = {
			owns_or_subject_of = 2079
			owns_or_subject_of = 2083
			owns_or_subject_of = 2088
			H30 = {
				custom_trigger_tooltip = {
					tooltip = no_ports_tt
					NOT = {
						any_owned_province = { has_port = yes }
					}
				}
			}
			H31 = {
				custom_trigger_tooltip = {
					tooltip = no_ports_tt
					NOT = {
						any_owned_province = { has_port = yes }
					}
				}
			}
			H32 = {
				custom_trigger_tooltip = {
					tooltip = no_ports_tt
					NOT = {
						any_owned_province = { has_port = yes }
					}
				}
			}
			U31 = {
				custom_trigger_tooltip = {
					tooltip = no_ports_tt
					NOT = {
						any_owned_province = { has_port = yes }
					}
				}
			}

			OR = {
				adm = 5
				dip = 5
				mil = 5
			}

		}

		effect = {
			country_event = { id = flavour_kobildzan.9 }
			if = {
				limit = {
					check_variable = {
						which = artificer_malcontents_var
						value = 1
					}
				}
				custom_tooltip = recoup_losses_tt 
				hidden_effect = {
					while = {
						limit = {
							check_variable = {
								which = artificer_malcontents_var
								value = 1
							}
						}
						random_owned_province = {
							limit = { region = dragon_coast_region }
							add_random_development = 1
						}
						random_subject_country = {
							limit = { capital_scope = { region = haraf_region } }
							random_owned_province = {
								remove_random_development = yes
								remove_random_development = yes
							}
						}
						subtract_variable = {
							which = artificer_malcontents_var
							value = 1
						}
					}
					clr_country_flag = kobildzan_artificer_spawn
				}
			}
		}
	}

}

kob_3_b = {
	slot = 3
	generic = no
	ai = yes
	potential = {
		tag = Z38
	}
	has_country_shield = yes
	Z38_a_civilized_cult = {
		icon = mission_court_education
		position = 8
		required_missions = { 
			Z38_a_step_into_the_draconic
			Z38_an_artificers_dream
		}

		trigger = {
			OR = {
				has_country_flag = semi_monstrous
				NOT = { has_country_modifier = monstrous_nation }
			}
			NOT = {
				has_country_modifier = racial_pop_human_expulsion
				has_country_modifier = racial_pop_human_purge
			}
				calc_true_if = {
					amount = 12
					desc = 12_aspects_unlocked_tt
					has_country_flag = unlocked_red_dragon_2_base
					has_country_flag = unlocked_red_dragon_3_base				
					has_country_flag = unlocked_blue_dragon_2_base
					has_country_flag = unlocked_blue_dragon_3_base
					has_country_flag = unlocked_green_dragon_2_base
					has_country_flag = unlocked_green_dragon_3_base
					has_country_flag = unlocked_black_dragon_2_base			
					has_country_flag = unlocked_black_dragon_3_base
					has_country_flag = unlocked_white_dragon_2_base
					has_country_flag = unlocked_white_dragon_3_base
					has_country_flag = unlocked_purple_dragon_2_base
					has_country_flag = unlocked_purple_dragon_3_base
					has_country_flag = unlocked_brown_dragon_2_base
					has_country_flag = unlocked_brown_dragon_3_base
					has_country_flag = unlocked_brass_dragon_2_base
					has_country_flag = unlocked_brass_dragon_3_base
					has_country_flag = unlocked_copper_dragon_2_base
					has_country_flag = unlocked_copper_dragon_3_base
					has_country_flag = unlocked_silver_dragon_2_base
					has_country_flag = unlocked_silver_dragon_3_base
					has_country_flag = unlocked_gold_dragon_2_base
					has_country_flag = unlocked_gold_dragon_3_base
					has_country_flag = unlocked_bronze_dragon_2_base
					has_country_flag = unlocked_bronze_dragon_3_base		
				}

			custom_trigger_tooltip = {
				tooltip = human_and_halfling_culture_tt 
				has_human_accepted_culture = yes
				has_halfling_accepted_culture = yes
			}
		}

		effect = {
			add_country_modifier = {
				name = Z38_kannorized_kobold
				duration = 7300
			}
			add_church_power = 200
		}
	}

	Z38_a_new_face_a_new_body = {
		icon = mission_kobold
		position = 10
		required_missions = { 
			Z38_the_artificer_ruinborn
			Z38_a_civilized_cult
		}

		trigger = {
			high_tolerance_human_race_trigger = yes 
			high_tolerance_gnomish_race_trigger = yes
			high_tolerance_halfling_race_trigger = yes
			religious_unity = 0.9
			check_variable = {
				which = kdc_festivals_held
				value = 15
			}
		}
		effect = {
			remove_country_modifier = Z38_call_of_the_dragon_1
			add_country_modifier = { name = Z38_call_of_the_dragon_2 duration = -1 }

			kdc_remove_aspect_1 = yes
			unlock_kobold_dragon_cult_for_colour_slot_upgrade = {
				COLOUR = copper
				SLOT = 1
				UPGRADE = upgraded
			}

			hidden_effect = { set_country_flag = kobildzan_malliaths_chosen_disciples }
			tooltip = {
				add_country_modifier = {
					name = Z38_malliaths_chosen_disciples_dummy
					duration = -1
				}
			}
			add_country_modifier = {
				name = Z38_malliaths_chosen_disciples_regiment_mod
				duration = -1
			}
			artifice_granted_10 = yes
			hidden_effect = { change_variable = { which = ArtificeDynamicInventionCost value = 10 } }
		}
	}

	Z38_a_celebration_of_kobildzan = {
		icon = mission_mushroom_cloud
		position = 11
		required_missions = { 
			Z38_a_technocracy_for_all
			Z38_traders_and_traitors
			Z38_a_new_face_a_new_body
		}

		provinces_to_highlight = {
			owned_by = ROOT
			NOT = {
				religion = kobold_dragon_cult
				is_owned_by_trade_company = yes
			}
		}

		trigger = {
			is_at_war = no
			church_power = 200

			189 = {
				check_variable = {
					which = dragon_cult_hoard
					value = 32000
				}
			}

			all_owned_province = {
				OR = {
					religion = kobold_dragon_cult
					is_owned_by_trade_company = yes
				}
			}
		}

		effect = {
			country_event = { id = flavour_kobildzan.10 }
		}
	}
}

kob_4_b = {
	slot = 4
	generic = no
	ai = yes
	has_country_shield = yes
	potential = {
		tag = Z38
	}

	Z38_a_hoard_worth_having = {
		icon = mission_zambezi_gold
		position = 6
		required_missions = { 
			Z38_the_great_revitalization
			Z38_heirs_of_dragonkind
		}

		provinces_to_highlight = {
			OR = {
				province_id = 177
				province_id = 179
				province_id = 189
				province_id = 187				
			}

			NOT = {
				has_tax_building_trigger = yes
				has_courthouse_building_trigger = yes
			}
		}

		trigger = {
			custom_trigger_tooltip = {
				tooltip = 177_tax_or_court_tt 
				177 = { OR = { has_tax_building_trigger = yes has_courthouse_building_trigger = yes }}
			}
			custom_trigger_tooltip = {
				tooltip = 179_tax_or_court_tt 
				179 = { OR = { has_tax_building_trigger = yes has_courthouse_building_trigger = yes }}
			}			
			custom_trigger_tooltip = {
				tooltip = 189_tax_or_court_tt 
				189 = { OR = { has_tax_building_trigger = yes has_courthouse_building_trigger = yes }}
			}	
			custom_trigger_tooltip = {
				tooltip = 187_tax_or_court_tt 
				187 = { OR = { has_tax_building_trigger = yes has_courthouse_building_trigger = yes }}
			}				

			189 = {
				check_variable = {
					which = dragon_cult_hoard
					value = 4000
				}
			}

		}

		effect = {
			179 = {
				change_trade_goods = gold
				add_permanent_province_modifier = {
					name = Z38_hoardsource
					duration = -1
				}
			}

			177 = {
				change_trade_goods = paper
				add_permanent_province_modifier = {
					name = Z38_hoard_logistics_hub
					duration = -1
				}
			}
			189 = {
				change_trade_goods = paper
				add_permanent_province_modifier = {
					name = Z38_hoard_logistics_hub
					duration = -1
				}
			}
			187 = {
				change_trade_goods = paper
				add_permanent_province_modifier = {
					name = Z38_hoard_logistics_hub
					duration = -1
				}
			}
			kdc_remove_aspect_1 = yes
			unlock_kobold_dragon_cult_for_colour_slot_upgrade = {
				COLOUR = red
				SLOT = 1
				UPGRADE = upgraded
			}
		}
	}

	Z38_an_artificers_dream = {
		icon = mission_magical_forest
		position = 7
		required_missions = { 
			Z38_a_hoard_worth_having
		}

		provinces_to_highlight = {
			OR = {
				area = dragonhills_area
				area = gnomish_pass_area
			}
			NOT = { owned_by = ROOT }
		}

		trigger = {
			dragonhills_area = { type = all owned_by = ROOT }
			gnomish_pass_area = { type = all owned_by = ROOT }

			num_of_rajput = 20

			has_estate_privilege = estate_artificers_development_tools

			estate_loyalty = {
				estate = estate_artificers
				loyalty = 60
			}

			estate_influence = {
				estate = estate_artificers
				influence = 30
			}
		}

		effect = {
			167 = { change_trade_goods = salt add_permanent_province_modifier = { name = Z38_arsenal_of_artificery duration = -1 }}
			184 = { change_trade_goods = salt add_permanent_province_modifier = { name = Z38_arsenal_of_artificery duration = -1 }}
		
			182 = { change_trade_goods = iron add_permanent_province_modifier = { name = Z38_arsenal_of_artificery duration = -1 }}
			150 = { change_trade_goods = copper add_permanent_province_modifier = { name = Z38_arsenal_of_artificery duration = -1 }}
			211 = { change_trade_goods = copper add_permanent_province_modifier = { name = Z38_arsenal_of_artificery duration = -1 }}
			148 = { change_trade_goods = copper add_permanent_province_modifier = { name = Z38_arsenal_of_artificery duration = -1 }}		
		}
	}
	Z38_the_holy_caverns = {
		icon = mission_underground_cave
		position = 8
		required_missions = { 
			Z38_an_artificers_dream
			Z38_koboldquilt_cloth
		}

		provinces_to_highlight = {
			OR = {
				AND = {
					OR = {
						province_id = 189
						province_id = 187					
					}
					NOT = { has_building = state_house }
				}
				AND = {
					has_terrain = cavern
					owned_by = ROOT
					region = dragon_coast_region
					OR = {
						NOT = { is_prosperous = yes }
						NOT = { num_of_buildings_in_province = 1 }
					}
				}
			}
		}

		trigger = {
			189 = { has_building = state_house }
			187 = { has_building = state_house }
			trading_bonus = {
				trade_goods = fungi
				value = yes
			}

			custom_trigger_tooltip = {
				tooltip = caverns_are_prosperous_tt 
				all_owned_province = {
					OR = {
						NOT = { has_terrain = cavern }
						NOT = { region = dragon_coast_region }
						AND = {
							is_prosperous = yes
							num_of_buildings_in_province = 1
						}
					}
				}
			}

		}

		effect = {
			dragonmaw_area = {
				add_permanent_province_modifier = {
					name = Z38_sanctified_through_effort
					duration = -1
				}	
			}
			dragonheart_area = {
				add_permanent_province_modifier = {
					name = Z38_sanctified_through_effort
					duration = -1
				}	
			}
			dragondepth_area = {
				add_permanent_province_modifier = {
					name = Z38_sanctified_through_effort
					duration = -1
				}	
			}
			186 = {
				change_trade_goods = fungi
				add_permanent_province_modifier = {
					name = Z38_enhanced_fungi_farms
					duration = -1
				}
			}
			4643 = {
				change_trade_goods = fungi
				add_permanent_province_modifier = {
					name = Z38_enhanced_fungi_farms
					duration = -1
				}
			}
			3999 = {
				change_trade_goods = fungi
				add_permanent_province_modifier = {
					name = Z38_enhanced_fungi_farms
					duration = -1
				}
			}
			3577 = {
				change_trade_goods = dyes
				add_permanent_province_modifier = {
					name = Z38_fungal_dye_supplies
					duration = -1
				}
			}
			3998 = {
				change_trade_goods = dyes
				add_permanent_province_modifier = {
					name = Z38_fungal_dye_supplies
					duration = -1
				}
			}
			185 = {
				change_trade_goods = dyes
				add_permanent_province_modifier = {
					name = Z38_fungal_dye_supplies
					duration = -1
				}
			}
		}
	}

	Z38_trapping_the_wealth = {
		icon = mission_war_chest
		position = 9
		required_missions = { 
			Z38_the_holy_caverns
		}

		provinces_to_highlight = {
		OR = {
			AND = {
				OR = {
					province_id = 115
					province_id = 112
				}
				OR = {
					NOT = { owned_by = ROOT }
					NOT = { province_has_center_of_trade_of_level = 2 }
				}
			}
			AND = {
				province_group = kobold_traps_provinces
				region = small_country_region
				NOT = { has_province_flag = has_kobold_traps }
			}
		}

		}

		trigger = {
			has_country_modifier = trap_mastery_lvl_3

			
			112 = {
				custom_trigger_tooltip = {
					tooltip = has_kobold_traps_tt
					has_province_flag = has_kobold_traps
				}	
			}

			120 = {
				custom_trigger_tooltip = {
					tooltip = has_kobold_traps_tt
					has_province_flag = has_kobold_traps
				}	
			}		

			any_owned_province = {
				region = small_country_region
				custom_trigger_tooltip = {
					tooltip = has_kobold_traps_tt
					has_province_flag = has_kobold_traps
				}
			}

			115 = { 
				custom_trigger_tooltip = {
					tooltip = level_2_cot_owned_by_root_tt 
					owned_by = ROOT 
					province_has_center_of_trade_of_level = 2 

				}
			}
			112 = { 
				custom_trigger_tooltip = {
					tooltip = level_2_cot_owned_by_root_tt 
					owned_by = ROOT 
					province_has_center_of_trade_of_level = 2 

				}
			}
		}

		effect = {
			120 = {
				center_of_trade = 2
				change_trade_goods = silk
			}

			115 = {
				add_center_of_trade_level = -2
			}

			custom_tooltip = modified_traps_tt 
			hidden_effect = {
				set_country_flag = modified_kobold_traps
				every_owned_province = {
					if = {
						limit = { has_province_modifier = kobold_traps_lvl_1 }
						remove_province_modifier = kobold_traps_lvl_1
						add_province_modifier = { name = modified_kobold_traps_lvl_1 duration = -1 }
					} else_if = {
						limit = { has_province_modifier = kobold_traps_lvl_2 }
						remove_province_modifier = kobold_traps_lvl_2
						add_province_modifier = { name = modified_kobold_traps_lvl_2 duration = -1 }
					} else_if = {
						limit = { has_province_modifier = kobold_traps_lvl_3 }
						remove_province_modifier = kobold_traps_lvl_3
						add_province_modifier = { name = modified_kobold_traps_lvl_3 duration = -1 }
					} else_if = {
						limit = { has_province_modifier = kobold_traps_lvl_4 }
						remove_province_modifier = kobold_traps_lvl_4
						add_province_modifier = { name = modified_kobold_traps_lvl_4 duration = -1 }
					}
				}
			}
		}
	}
	Z38_traders_and_traitors = {
		icon = mission_horde_trade
		position = 10
		required_missions = { 
			Z38_reclaiming_the_frontier
			Z38_trapping_the_wealth
		}

		provinces_to_highlight = {
			superregion = gerudia_superregion
			province_has_center_of_trade_of_level = 1
			OR = {
				NOT = { province_has_center_of_trade_of_level = 2 }
				NOT = { religion = kobold_dragon_cult }
			}
		}

		trigger = {
			num_of_light_ship = 40
			num_of_transport = 20

			1324 = {
				trade_share = {
					country = ROOT
					share = 65
				}
			}

			num_of_provinces_owned_or_owned_by_subjects_with = {
				value = 3
				superregion = gerudia_superregion
				province_has_center_of_trade_of_level = 2
				religion = kobold_dragon_cult
			}
		}

		effect = {
			dalr_region = { add_permanent_claim = ROOT }

			westmoor_proper_area = { change_culture = kobildzani_kobold }
			moorhills_area = { change_culture = kobildzani_kobold }
			coddorran_heights_area = { change_culture = kobildzani_kobold }
			dragonhills_area = { change_culture = kobildzani_kobold }

			kdc_remove_aspect_1 = yes
			unlock_kobold_dragon_cult_for_colour_slot_upgrade = {
				COLOUR = white
				SLOT = 1
				UPGRADE = upgraded
			}
		}
	}
}
Kob_5b = {
	slot = 5
	generic = no
	ai = yes
	has_country_shield = yes
	potential = {
		tag = Z38
	}

	Z38_the_great_revitalization = {
		icon = mission_early_game_buildings
		position = 5

		provinces_to_highlight = {
			OR = {
				province_id = 3578
				province_id = 4644
				province_id = 4645
				province_id = 4646
			}
			NOT = { num_of_times_improved = 1 }
		}
		
		trigger = {
			if = {
				limit = { ai = yes }
				adm_power = 300
				is_subject = no
				owns = 3578
				owns = 4644
				owns = 4645
				owns = 4646
			} else = {
				3578 = { num_of_times_improved = 1 }
				4644 = { num_of_times_improved = 1 }
				4645 = { num_of_times_improved = 1 }
				4646 = { num_of_times_improved = 1 }
			}

		}

		effect = {
			if = {
				limit = { ai = yes }
				add_adm_power = -300
			}

			4644 = { change_trade_goods = dyes }
			3578 = { change_trade_goods = dyes }

			add_country_modifier = {
				name = Z38_the_great_revitalization
				duration = 18250
			}
			kobold_traps_provinces = {
				add_permanent_claim = ROOT
			}
		}
	}

	Z38_farms_not_fish = {
		icon = mission_rice_farming
		position = 6
		required_missions = { 
			Z38_the_great_revitalization
		}

		provinces_to_highlight = {
			OR = {
				province_id = 171 
				province_id = 172 
				province_id = 181 
				province_id = 176 
				province_id = 122 
				province_id = 145 
			}
			NOT = { light_ships_in_province = 2 }
		}

		trigger = {
			if = {
				limit = { ai = yes }
				treasury = 600
				is_subject = no
				calc_true_if = {
					amount = 4
					owns = 171
					owns = 172
					owns = 181
					owns = 176
					owns = 122
					owns = 145
				}
			} else = {
				production_efficiency = 0.4
				custom_trigger_tooltip = {
					tooltip = fish_provinces_tt 
					171 = { owned_by = ROOT light_ships_in_province = 2 }
					172 = { owned_by = ROOT light_ships_in_province = 2 }
					181 = { owned_by = ROOT light_ships_in_province = 2 }
					176 = { owned_by = ROOT light_ships_in_province = 2 }
					122 = { owned_by = ROOT light_ships_in_province = 2 }
					145 = { owned_by = ROOT light_ships_in_province = 2 }
				}
			}
		}

		effect = {
			if = {
				limit = { ai = yes }
				add_treasury = -600
			}

			if = {
				limit = { owns = 171 }
				171 = { 
					change_trade_goods = fungi
					kill_units = {
						who = ROOT
						type = light_ship
						amount = 2
					}
				}
			}
			if = {
				limit = { owns = 172 }
				172 = { 
					change_trade_goods = fungi
					kill_units = {
						who = ROOT
						type = light_ship
						amount = 2
					}
				}
			}
			if = {
				limit = { owns = 181 }
				181 = { 
					change_trade_goods = fungi
					kill_units = {
						who = ROOT
						type = light_ship
						amount = 2
					}
				}
			}
			if = {
				limit = { owns = 176 }
				176 = { 
					change_trade_goods = fungi
					kill_units = {
						who = ROOT
						type = light_ship
						amount = 2
					}
				}
			}
			if = {
				limit = { owns = 122 }
				122 = { 
					change_trade_goods = fungi
					kill_units = {
						who = ROOT
						type = light_ship
						amount = 2
					}
				}
			}
			if = {
				limit = { owns = 145 }
				145 = { 
					change_trade_goods = fungi
					kill_units = {
						who = ROOT
						type = light_ship
						amount = 2
					}
				}
			}
			every_owned_province = {
				limit = { trade_goods = fungi }
				add_permanent_province_modifier = {
					name = Z38_enhanced_fungi_farms
					duration = -1
				}
			}

			add_country_modifier = {
				name = Z38_fungal_farm_network
				duration = -1
			}
		}
	}
	Z38_koboldquilt_cloth = {
		icon = mission_son_own_develop_clothes_and_salt
		position = 7
		required_missions = { 
			Z38_farms_not_fish
		}

		provinces_to_highlight = {
			OR = {
				province_id = 115
				AND = {
					owned_by = ROOT
					OR = {
						province_id = 175
						province_id = 173
						province_id = 174
						province_id = 183
						province_id = 170
					}
					NOT = { has_production_building_trigger = yes }
				}
			}

		}

		trigger = {
			if = {
				limit = { ai = yes }
				treasury = 600
				calc_true_if = {
					amount = 4
					owns = 175
					owns = 173
					owns = 174
					owns = 183
					owns = 170
				}
			} else = {
				custom_trigger_tooltip = {
					tooltip = all_wool_provinces_tt 
					175 = { has_production_building_trigger = yes }
					173 = { has_production_building_trigger = yes }
					174 = { has_production_building_trigger = yes }
					183 = { has_production_building_trigger = yes }
					170 = { has_production_building_trigger = yes }
				}
				num_of_provinces_owned_or_owned_by_non_sovereign_subjects_with = {
					value = 3
					trade_goods = cloth
				}

				
				OR = {
					owns_or_subject_of = 115
					custom_trigger_tooltip = {
						tooltip = silk_spy_tt 
						any_known_country = {
							owns_or_subject_of = 115
							has_spy_network_from = {
								who = ROOT
								value = 50
							}
						}
					}
				}
			}
		}
		effect = {
			if = {
				limit = { ai = yes }
				add_treasury = -600
			}

			if = {
				limit = { NOT = { owns_or_subject_of = 115 } }
				random_known_country = {
					limit = {
						owns_or_subject_of = 115
						has_spy_network_from = {
							who = ROOT
							value = 50
						}
					}

					add_spy_network_from = {
						who = ROOT
						value = -50
					}
				}
			}
			if = {
				limit = { owns = 175 }
				175 = {
					change_trade_goods = cloth
	
					add_permanent_province_modifier = {
						name = Z38_fungal_dye_supplies
						duration = -1
					}
				}
			}
			if = {
				limit = { owns = 174 }
				174 = {
					change_trade_goods = cloth
	
					add_permanent_province_modifier = {
						name = Z38_fungal_dye_supplies
						duration = -1
					}
				}
			}			
			if = {
				limit = { owns = 183 }
				183 = {
					change_trade_goods = cloth
	
					add_permanent_province_modifier = {
						name = Z38_fungal_dye_supplies
						duration = -1
					}
				}
			}
			if = {
				limit = { owns = 170 }
				170 = {
					change_trade_goods = cloth
	
					add_permanent_province_modifier = {
						name = Z38_fungal_dye_supplies
						duration = -1
					}
				}
			}
			if = {
				limit = { owns = 173 }
				173 = {
					change_trade_goods = cloth
	
					add_permanent_province_modifier = {
						name = Z38_fungal_dye_supplies
						duration = -1
					}
				}
			}
			if = {
				limit = { owns = 4644 }
				4644 = {	
					add_permanent_province_modifier = {
						name = Z38_fungal_dye_supplies
						duration = -1
					}
				}
			}
			if = {
				limit = { owns = 3578 }
				3578 = {	
					add_permanent_province_modifier = {
						name = Z38_fungal_dye_supplies
						duration = -1
					}
				}
			}
		}
	}

	Z38_the_kobold_krakeneers = {
		icon = mission_rb_cod_wars
		position = 8
		required_missions = {
			Z38_koboldquilt_cloth
		}

		provinces_to_highlight = {
			OR = {
				province_id = 140
				province_id = 138
				province_id = 178
				area = storm_isles_area
			}

			OR = {
				NOT = { owned_by = ROOT }
				NOT = {
					has_dock_building_trigger = yes
					has_shipyard_building_trigger = yes
				}
			}
		}

		trigger = {
			num_of_heavy_ship = 30
			custom_trigger_tooltip = {
				tooltip = dock_buildings_in_kobildzan_tt 
				140 = { owned_by = ROOT OR = { has_dock_building_trigger = yes has_shipyard_building_trigger = yes } }
				138 = { owned_by = ROOT OR = { has_dock_building_trigger = yes has_shipyard_building_trigger = yes } }
				178 = { owned_by = ROOT OR = { has_dock_building_trigger = yes has_shipyard_building_trigger = yes } }
				storm_isles_area = { type = all owned_by = ROOT OR = { has_dock_building_trigger = yes has_shipyard_building_trigger = yes } }
			}
		}

		effect = {
			140 = { add_building = grand_shipyard add_permanent_province_modifier = { name = Z38_seabeast_fisheries duration = -1 } }
			138 = { add_building = grand_shipyard add_permanent_province_modifier = { name = Z38_seabeast_fisheries duration = -1 } }
			178 = { add_building = grand_shipyard add_permanent_province_modifier = { name = Z38_seabeast_fisheries duration = -1 } }

			storm_isles_area = { change_trade_goods = ivory add_permanent_province_modifier = { name = Z38_seabeast_fisheries duration = -1 } }
		}
	}
	Z38_reclaiming_the_frontier = {
		icon = mission_duel_snow
		position = 9
		required_missions = { 
			Z38_the_kobold_krakeneers
		}

		provinces_to_highlight = {
			OR = {
				AND = {
					OR = {
						area = westmoor_proper_area
						area = moorhills_area
						area = coddorran_heights_area
						area = dragonhills_area
						area = serpentshead_area
					}
					OR = {
						NOT = { owned_by = ROOT }
						NOT = { religion = kobold_dragon_cult }
					}
				}
				AND = {
					OR = {
						province_id = 196
						province_id = 694
						province_id = 213
					}
					NOT = {
						has_province_modifier = modified_kobold_traps_lvl_3 
						has_province_modifier = modified_kobold_traps_lvl_4
					}
				}
			}
		}

		trigger = {
			custom_trigger_tooltip = {
				tooltip = westmoor_moorhills_coddorran_dragonhills_tt
				westmoor_proper_area = { type = all owned_by = ROOT religion = kobold_dragon_cult }
				moorhills_area = { type = all owned_by = ROOT religion = kobold_dragon_cult }
				coddorran_heights_area = { type = all owned_by = ROOT religion = kobold_dragon_cult }
				dragonhills_area = { type = all owned_by = ROOT religion = kobold_dragon_cult }
				serpentshead_area = { type = all owned_by = ROOT religion = kobold_dragon_cult }
			}
			

			196 = {
				custom_trigger_tooltip = {
					tooltip = kobold_traps_lvl_2_or_more 
					has_province_flag = kobold_traps_lvl_2_or_more
				}
			}
			213 = {
				custom_trigger_tooltip = {
					tooltip = kobold_traps_lvl_2_or_more 
					has_province_flag = kobold_traps_lvl_2_or_more
				}
			}	
			custom_trigger_tooltip = {
				tooltip = greenscales_traps_tt
				OR = {
					197 = { has_province_flag = kobold_traps_lvl_2_or_more }
					694 = { has_province_flag = kobold_traps_lvl_2_or_more }
				}
			}
			NOT = {
				accepted_culture = gawedi
				accepted_culture = moorman
			}
		}

		effect = {
			westmoor_proper_area = { add_kobold_minority_size_effect = yes add_kobold_minority_size_effect = yes }
			moorhills_area = { add_kobold_minority_size_effect = yes add_kobold_minority_size_effect = yes }
			coddorran_heights_area = { add_kobold_minority_size_effect = yes add_kobold_minority_size_effect = yes }
			dragonhills_area = { add_kobold_minority_size_effect = yes add_kobold_minority_size_effect = yes }

			frostbridges_area = { add_permanent_claim = ROOT }
			bjarnland_area = { add_permanent_claim = ROOT }
			revrland_area = { add_permanent_claim = ROOT }
		}
	}
}

kob_1_c = {
	slot = 1
	generic = no
	ai = yes
	has_country_shield = yes
	potential = {
		tag = Z38
		has_country_flag = Z38_had_roar_happen
	}

	Z38_aelantir_as_one = {
		icon = mission_aelantir
		position = 13
		required_missions = { 
			Z38_in_raw_desperation
			Z38_supply_the_crusade
		}

		provinces_to_highlight = {
			region = sarda_region
			is_empty = no
			OR = {
				NOT = { owned_by_subject_of = ROOT }
				NOT = { religion = kobold_dragon_cult religion = drozma_tur }
			}
		}

		trigger = {
			sarda_region = {
				type = all
				OR = {
					AND = {
						owned_by_subject_of = ROOT
						OR = {
							religion = kobold_dragon_cult
							religion = drozma_tur
						}
					}
					is_empty = yes
				}	
			}
			has_church_aspect = green_dragon_1_upgraded
		}

		effect = {
			tooltip = {
				add_country_modifier = {
					name = Z38_gospodh_2
					duration = -1
				}
			}
			custom_tooltip = tech_sharing_tt 

			hidden_effect = {
				every_subject_country = {
					subject_ascension_effect = yes
				}
			}

			H24 = {
				every_owned_province = {
					limit = {
						has_province_modifier = ynn_urban_decline
					}
					remove_province_modifier = ynn_urban_decline
				}
			}

			kdc_remove_aspect_3 = yes
			unlock_kobold_dragon_cult_for_colour_slot_upgrade = {
				COLOUR = green
				SLOT = 3
				UPGRADE = upgraded
			}
		}
	}

	Z38_eclipsing_a_dragon = {
		icon = mission_hydra
		position = 16
		required_missions = { 
			Z38_aelantir_as_one
		}

		provinces_to_highlight = {
			OR = {
				AND = {
					province_group = cannorian_holy_sites
					NOT = { owned_by = ROOT }
				}
				AND = {
					OR = {
						area = dhenbasana_estuary_area
						area = kharunyana_estuary_area
						area = reanthung_area
					}
					has_port = yes
					NOT = { owned_by = ROOT }
				}
				AND = {
					OR = {
						province_id = 466
						province_id = 4217
					}
					NOT = {
						OR = {
							owned_by = ROOT
							owned_by_subject_of = ROOT
						}
					}
				}
				AND = {
					OR = {
						province_id = 1133
						province_id = 1138
						province_id = 1165
						province_id = 1186
					}
					NOT = {
						OR = {
							has_great_project = { type = ynnic_dam_adbrabohvi tier = 3 }
							has_great_project = { type = ynnic_dam_vels_bacar tier = 3 }
							has_great_project = { type = ynnic_dam_bosancovac tier = 3 }
							has_great_project = { type = ynnic_dam_mocbarja tier = 3 }
						}
					}
				}
			}
		}

		trigger = {		
			custom_trigger_tooltip = {
				tooltip = dam1_or_money_tt
				OR = {
					1133 = { has_great_project = { type = ynnic_dam_adbrabohvi tier = 3 } }
					treasury = 10000
				}
			}
			custom_trigger_tooltip = {
				tooltip = dam2_or_money_tt
				OR = {
					1138 = { has_great_project = { type = ynnic_dam_vels_bacar tier = 3 } }
					treasury = 10000
				}
			}
			custom_trigger_tooltip = {
				tooltip = dam3_or_money_tt
				OR = {
					1165 = { has_great_project = { type = ynnic_dam_bosancovac tier = 3 } }
					treasury = 10000
				}
			}
			custom_trigger_tooltip = {
				tooltip = dam4_or_money_tt
				OR = {
					1186 = { has_great_project = { type = ynnic_dam_mocbarja tier = 3 } }
					treasury = 10000
				}
			}
				
			OR = {
				custom_trigger_tooltip = {
					tooltip = unlocked_brass_dragon_tt 
					has_country_flag = unlocked_brass_dragon_3_upgraded
				}
				custom_trigger_tooltip = {
					tooltip = unlocked_bronze_dragon_tt 
					has_country_flag = unlocked_bronze_dragon_3_upgraded
				}
				custom_trigger_tooltip = {
					tooltip = unlocked_purple_dragon_tt 
					has_country_flag = unlocked_purple_dragon_3_upgraded
				}
				custom_trigger_tooltip = {
					tooltip = unlocked_silver_dragon_tt 
					has_country_flag = unlocked_silver_dragon_3_upgraded
				}
				custom_trigger_tooltip = {
					tooltip = instructions_festivals_tt
					always = no
				}
			}
		}

		effect = {
			if = {
				limit = { NOT = { 1133 = { has_great_project = { type = ynnic_dam_adbrabohvi tier = 3 } } } }
				add_treasury = -10000
			}
			if = {
				limit = { NOT = { 1138 = { has_great_project = { type = ynnic_dam_vels_bacar tier = 3 } } } }
				add_treasury = -10000
			}
			if = {
				limit = { NOT = { 1165 = { has_great_project = { type = ynnic_dam_bosancovac tier = 3 } } } }
				add_treasury = -10000
			}
			if = {
				limit = { NOT = { 1186 = { has_great_project = { type = ynnic_dam_mocbarja tier = 3 } } } }
				add_treasury = -10000
			}
			complex_dynamic_effect_without_alternative = {
				first_custom_tooltip = brass_quest_2_if_tt
				first_limit = "has_country_flag = unlocked_brass_dragon_2_upgraded"
				first_effect = "
					custom_tooltip = command_screwed_tt
					hidden_effect = {
						R62 = {
							add_country_modifier = {
								name = Z38_brass_sabotage #lex
								duration = 7300
							}
						}
					}
				"
				second_custom_tooltip = bronze_quest_2_if_tt
				second_limit = "has_country_flag = unlocked_bronze_dragon_2_upgraded"
				second_effect = "
					custom_tooltip = planetouched_general_tt
					hidden_effect = {
						define_general = {
							fire = 4
							shock = 5
							manuever = 5
							siege = 2
							trait = planetouched_commander_personality
						}					
					}				
				"
				third_custom_tooltip = purple_quest_2_if_tt
				third_limit = "has_country_flag = unlocked_purple_dragon_2_upgraded"
				third_effect = "
					custom_tooltip = unlock_gunpowder_tt 
					hidden_effect = {
						set_country_flag = unlocked_artifice_invention_elemental_gunpowder 
						set_country_flag = can_use_elemental_gunpowder
					}
				"
				fourth_custom_tooltip = silver_quest_2_if_tt
				fourth_limit = "has_country_flag = unlocked_silver_dragon_2_upgraded"
				fourth_effect = "
					custom_tooltip = all_silver_countries 
					hidden_effect = {
						cannorian_holy_sites = {
							owner = {
								change_religion = kobold_dragon_cult
							}
						}
					}
				"
				fifth_custom_tooltip = gold_quest_2_if_tt
				fifth_limit = "has_country_flag = unlocked_gold_dragon_2_upgraded"
				fifth_effect = "
					custom_tooltip = kobold_gold_cores_tt
					hidden_effect = {
						yanshen_superregion = {
							limit = {
								has_any_kobold_pop_trigger = yes
							}
							add_core = Y85
						}
					}
				"
			}
		}

	}
}
kob_2_c = {
	slot = 2
	generic = no
	ai = yes
	has_country_shield = yes
	potential = {
		tag = Z38
		has_country_flag = Z38_had_roar_happen
	}

	Z38_easing_the_pain = {
		icon = mission_misty_forest
		position = 13
		required_missions = { 
			Z38_in_raw_desperation
		}

		provinces_to_highlight = {
			OR = {
				AND = {
					region = dragon_coast_region
					NOT = { development = 25 }
				}
				AND = {
					owned_by = H24
					NOT = { development = 25 }
				}
				AND = {
					province_id = 1746
					NOT = { transports_in_province = 40 }
				}
			}
		}

		trigger = {
			
			num_of_owned_provinces_with = {
				value = 15
				region = dragon_coast_region
				development = 25
			}
			H24 = {
				num_of_owned_provinces_with = {
					value = 15
					development = 25
				}
			}
			187 = {
				check_variable = {
					which = dragon_cult_hoard
					value = 4000
				}
			}

			1746 = { transports_in_province = 40 }
		}

		effect = {
			large_increase_of_ruinborn_tolerance_effect = yes
			custom_tooltip = ruinborn_migration_to_dc_tt 
			hidden_effect = {
				for = {
					amount = 20
					effect = "
					random_owned_province = {
						limit = { region = dragon_coast_region NOT = { has_ruinborn_minority_trigger = yes } }
						add_ruinborn_minority_size_effect = yes
					}"
				}				
			}
			H24 = {
				add_country_modifier = {
					name = Z38_dominion_fleet
					duration = -1
				}
			}
			1746 = {
				kill_units = {
					who = ROOT
					type = transport
					amount = 40
				}
				add_core = H24
				cede_province = H24
				transport = H24
				hidden_effect = {
					transport = H24
					transport = H24
					transport = H24
					transport = H24
					transport = H24
					transport = H24
					transport = H24
					transport = H24
					transport = H24
					transport = H24
					transport = H24
					transport = H24
					transport = H24
					transport = H24
					transport = H24
					transport = H24
					transport = H24
					transport = H24
					transport = H24
					transport = H24
					transport = H24
					transport = H24
					transport = H24
					transport = H24
					transport = H24
					transport = H24
					transport = H24
					transport = H24
					transport = H24
					transport = H24
					transport = H24
					transport = H24
					transport = H24
					transport = H24
					transport = H24
					transport = H24
					transport = H24
					transport = H24
					transport = H24
				}
			}


			hidden_effect = {
				set_variable = {
					which = dev2add
					value = 0
				}
				export_to_variable = {
					which = dev2add
					value = total_development
					who=ROOT
				}
				every_subject_country = {
					set_variable = {
						which = vassaldev
						value = 0
					}
					export_to_variable = {
						which = vassaldev
						value = total_development
					}
					divide_variable = {
						which = vassaldev
						value = 2
					}
					ROOT = {
						set_variable = {
							which = vassaldev
							which = PREV
						}
						change_variable = {
							which = dev2add
							which = vassaldev
						}
					}
				}
				multiply_variable = {
					which = dev2add
					value = 3
				}
				REB = {
					set_variable = {
						which = dev2add
						which = PREV
					}
					change_variable = { 
						which = dragon_cult_hoard 
						which = dev2add 
					} 
				} 
				upgrade_kobold_hoard = yes 
				every_owned_province = {
					remove_province_modifier = Z38_a_new_ashen_skies
				}
			}
		}
	}

	Z38_rebuilding_what_was_lost = {
		icon = mission_early_game_buildings
		position = 14
		required_missions = { 
			Z38_easing_the_pain
		}

		provinces_to_highlight = {
			OR = {
				province_id = 1165
				province_id = 1690
				province_id = 1445
				province_id = 1324
			}
			NOT = { is_strongest_trade_power = ROOT }
		}

		trigger = {
			1294 = { highest_value_trade_node = yes }
			
			1165 = { is_strongest_trade_power = ROOT } 
			1690 = { is_strongest_trade_power = ROOT } 
			1445 = { is_strongest_trade_power = ROOT } 
			1324 = { is_strongest_trade_power = ROOT } 

			187 = {
				check_variable = {
					which = dragon_cult_hoard
					value = 32000
				}
			}
		}

		effect = {
			remove_country_modifier = Z38_call_of_the_dragon_2
			add_country_modifier = { name = Z38_call_of_the_dragon_3 duration = -1 }
			
			2863 = { add_permanent_claim = ROOT }
			if = {
				limit = { exists = Z55 }
				add_casus_belli = {
					type = cb_vassalize_mission
					target = Z55
					months = 240
				}
			}
			else_if = {
				limit = { exists = Z56 }
				add_casus_belli = {
					type = cb_vassalize_mission
					target = Z56
					months = 240
				}
			}
			kdc_remove_aspect_2 = yes
			unlock_kobold_dragon_cult_for_colour_slot_upgrade = {
				COLOUR = red
				SLOT = 2
				UPGRADE = upgraded
			}
		}
	}

	Z38_pilgrimage_to_the_hoard = {
		icon = mission_entrepot_of_india
		position = 16
		required_missions = { 
			Z38_rebuilding_what_was_lost
		}

		provinces_to_highlight = {
			province_id = 2863
		}

		trigger = {
			owns_or_subject_of = 2863

			has_church_aspect = red_dragon_1_upgraded

			187 = {
				check_variable = {
					which = dragon_cult_hoard
					value = 64000
				}
			}
			Z56 = {
				OR = {
					exists = no
					is_subject_of = ROOT
				}
			}
		}

		effect = {
			2863 = { change_culture = darkscale_kobold }
			if = {
				limit = { NOT = { 2863 = { owned_by = Z56 } } }
				hidden_effect = {
					2863 = {
						add_core = Z56
						Z56 = {
							set_country_flag = no_longer_monstrous
						}
						cede_province = ROOT
					}
					every_owned_province = {
						limit = {
							is_core = Z55
						}
						add_core = Z56
						remove_core = Z55
					}
					release = Z56
					Z55 = {
						if = {
							limit = { is_subject_of = ROOT }
							every_owned_province = {
								add_core = Z56
								remove_core = Z55
								cede_province = Z56
							}						
						}
					}
					Z56 = {
						change_government = monarchy
						
						add_government_reform = autocracy_reform
						
					}
				}
			} 
			create_subject = {
				subject_type = twin_empire
				subject = Z56
			}
			kdc_remove_aspect_3 = yes
			unlock_kobold_dragon_cult_for_colour_slot_upgrade = {
				COLOUR = red
				SLOT = 3
				UPGRADE = upgraded
			}
			hidden_effect = {
				every_subject_country = {
					subject_ascension_effect = yes
				}
			}
		}
	}
}

kob_3_c = {
	slot = 3
	generic = no
	ai = yes
	has_country_shield = yes
	potential = {
		tag = Z38
		has_country_flag = Z38_had_roar_happen
	}

	Z38_in_raw_desperation = {
		icon = mission_fire_of_london
		position = 12
		required_missions = { 
			Z38_a_celebration_of_kobildzan
		}

		provinces_to_highlight = {
			region = dragon_coast_region
			devastation = 50
		}

		trigger = {
			custom_trigger_tooltip = {
				tooltip = Z38_received_aelantir_aid_tt 
				has_country_flag = Z38_received_aelantir_aid
			}

			is_ahead_of_time_in_technology = { tech = adm }
			is_ahead_of_time_in_technology = { tech = dip }
			is_ahead_of_time_in_technology = { tech = mil }

			dragon_coast_region = { type = all NOT = { devastation = 50 } }
			has_church_aspect = blue_dragon_1_upgraded
		}
		
		effect = {
			country_event = { id = flavour_kobildzan.13 }	
		}
	}

	Z38_last_gasps_of_heresy = {
		icon = mission_burning_man
		position = 15
		required_missions = { 
			Z38_rebuilding_what_was_lost
			Z38_exploit_the_land
		}

		provinces_to_highlight = {
			owned_by = ROOT
			unrest = 0.5
		}
	
		trigger = {
			OR = {
				religious_unity = 1
				NOT = {
					any_owned_province = {
						unrest = 0.5
					}
				}
			}
				custom_trigger_tooltip = {
					tooltip = unlocked_all_aspects_tt 
					has_country_flag = unlocked_red_dragon_2_base
					has_country_flag = unlocked_red_dragon_3_base				
					has_country_flag = unlocked_blue_dragon_2_base
					has_country_flag = unlocked_blue_dragon_3_base
					has_country_flag = unlocked_green_dragon_2_base
					has_country_flag = unlocked_green_dragon_3_base
					has_country_flag = unlocked_black_dragon_2_base			
					has_country_flag = unlocked_black_dragon_3_base
					has_country_flag = unlocked_white_dragon_2_base
					has_country_flag = unlocked_white_dragon_3_base
					has_country_flag = unlocked_purple_dragon_2_base
					has_country_flag = unlocked_purple_dragon_3_base
					has_country_flag = unlocked_brown_dragon_2_base
					has_country_flag = unlocked_brown_dragon_3_base
					has_country_flag = unlocked_brass_dragon_2_base
					has_country_flag = unlocked_brass_dragon_3_base
					has_country_flag = unlocked_copper_dragon_2_base
					has_country_flag = unlocked_copper_dragon_3_base
					has_country_flag = unlocked_silver_dragon_2_base
					has_country_flag = unlocked_silver_dragon_3_base
					has_country_flag = unlocked_gold_dragon_2_base
					has_country_flag = unlocked_gold_dragon_3_base
					has_country_flag = unlocked_bronze_dragon_2_base
					has_country_flag = unlocked_bronze_dragon_3_base					
				}


			development_in_provinces = {
				value = 1000
				region = dragon_coast_region
			}
		}
	
		effect = {
			country_event = { id = flavour_kobildzan.18 }
		}
	}

	Z38_a_draconic_conference = {
		icon = mission_the_surge
		position = 17
		required_missions = { 
			Z38_eclipsing_a_dragon
			Z38_pilgrimage_to_the_hoard
			Z38_the_alosian_skald_cult
			Z38_interview_with_a_dragon
			Z38_last_gasps_of_heresy
		}

		provinces_to_highlight = {
			OR = {
				owned_by = ROOT
				owned_by_subject_of = ROOT
			}

			NOT = {
				religion = kobold_dragon_cult
				religion = drozma_tur
			}
		}

		trigger = {
			is_hegemon = yes

			187 = {
				check_variable = {
					which = dragon_cult_hoard
					value = 128000
				}
			}

			num_of_provinces_owned_or_owned_by_subjects_with = {
				value = 500
				OR = {
					religion = kobold_dragon_cult
					religion = drozma_tur
				}
			}
		}

		effect = {
			country_event = { id = flavour_kobildzan.19 }
		}
	}
	Z38_draconic_unity = {
		icon = mission_mushroom_cloud 
		position = 18
		required_missions = { 
			Z38_a_draconic_conference
		}

		provinces_to_highlight = {
			OR = {
				AND = {
					province_group = cannorian_holy_sites
					NOT = {
						OR = {
							country_or_subject_holds = ROOT
							owner = { alliance_with = ROOT }
						}
					}
				}
				AND = {
					OR = {
						area = dhenbasana_estuary_area
						area = kharunyana_estuary_area
						area = reanthung_area
					}
					has_port = yes
					NOT = { owned_by = ROOT }
				}
				AND = {
					OR = {
						province_id = 466
						province_id = 4217
						province_id = 4976
						province_id = 4323
	
					}
					NOT = {
						OR = {
							owned_by = ROOT
							owned_by_subject_of = ROOT
							AND = {
								province_id = 4217
								owner = { alliance_with = ROOT }
							}
						}
					}
				}
			}
		}

		trigger = {
			187 = {
				check_variable = {
					which = dragon_cult_hoard
					value = 512000
				}
			}
			custom_trigger_tooltip = {
				tooltip = unlocked_brass_dragon_tt 
				has_country_flag = unlocked_brass_dragon_3_upgraded
			}
			custom_trigger_tooltip = {
				tooltip = unlocked_bronze_dragon_tt 
				has_country_flag = unlocked_bronze_dragon_3_upgraded
			}
			custom_trigger_tooltip = {
				tooltip = unlocked_purple_dragon_tt 
				has_country_flag = unlocked_purple_dragon_3_upgraded
			}
			custom_trigger_tooltip = {
				tooltip = unlocked_silver_dragon_tt 
				has_country_flag = unlocked_silver_dragon_3_upgraded
			}
			custom_trigger_tooltip = {
				tooltip = unlocked_brown_dragon_tt 
				has_country_flag = unlocked_brown_dragon_3_upgraded
			}
			custom_trigger_tooltip = {
				tooltip = unlocked_black_dragon_tt 
				has_country_flag = unlocked_black_dragon_3_upgraded
			}
			custom_trigger_tooltip = {
				tooltip = unlocked_gold_dragon_tt 
				has_country_flag = unlocked_gold_dragon_3_upgraded
			}
		}

		effect = {
			country_event = { id = flavour_kobildzan.20 }
		}
	}
}
kob_4_c = {
	slot = 4
	generic = no
	ai = yes
	has_country_shield = yes
	potential = {
		tag = Z38
		has_country_flag = Z38_had_roar_happen
	}
	
	Z38_acts_of_ascension = {
		icon = mission_star_ascendency
		position = 13
		required_missions = { 
			Z38_in_raw_desperation
		}

		provinces_to_highlight = {
			OR = {
				region = dragon_coast_region
				area = coddorran_heights_area
			}
			NOT = { has_courthouse_building_trigger = yes }
		}

		trigger = {
			tier_3_artificer_estate = yes
			dragon_coast_region = { type = all has_courthouse_building_trigger = yes }
			coddorran_heights_area = { type = all has_courthouse_building_trigger = yes }
			crown_land_share = 70
			check_variable = { which = MaxArtificePoints value = 100 }
			OR = {
				innovativeness = 100
				army_tradition = 90
				army_professionalism = 1
			}
		}

		effect = {
			country_event = { id = flavour_kobildzan.14 }
		}
	}

	Z38_exploit_the_land = {
		icon = mission_forge
		position = 14
		required_missions = { 
			Z38_lashing_out
			Z38_acts_of_ascension
		}

		provinces_to_highlight = {
			province_group = ebonsteel_provinces
			OR = {
				NOT = { owned_by = ROOT }
				NOT = { has_manufactory_trigger = yes }
				NOT = { has_production_building_trigger = yes }
				NOT = { has_courthouse_building_trigger = yes }
			}
		}

		trigger = {
			num_of_owned_provinces_with = {
				value = 5
				province_group = ebonsteel_provinces

				has_manufactory_trigger = yes
				has_production_building_trigger = yes
				has_courthouse_building_trigger = yes
			}

			estate_loyalty = {
				estate = estate_artificers
				loyalty = 80
			}

			production_efficiency = 0.6
		}

		effect = {
			custom_tooltip = ebonsteel_extraction_tt 
			hidden_effect = {
				every_owned_province = {
					limit = { province_group = ebonsteel_provinces }
					add_permanent_province_modifier = { name = Z38_ebonsteel_extraction duration = -1 }
				}
			}
			mission_reward_artifice_points_25 = yes
			update_artifice_points = yes
		}
	}

	Z38_interview_with_a_dragon = {
		icon = mission_arise
		position = 16
		required_missions = { 
			Z38_exploit_the_land
		}

		trigger = {
			adm = 5
			dip = 5
			mil = 5

			if = {
				limit = { has_dlc = "Cradle of Civilization" }
				custom_trigger_tooltip = {
					tooltip = hired_all_advisors_level_5
					employed_advisor = { category = ADM skill = 5 }
					employed_advisor = { category = DIP skill = 5 }
					employed_advisor = { category = MIL skill = 5 }
				}
			}
			else = {
				custom_trigger_tooltip = {
					tooltip = hired_all_advisors_level_3
					employed_advisor = { category = ADM skill = 3 }
					employed_advisor = { category = DIP skill = 3 }
					employed_advisor = { category = MIL skill = 3 }
				}
			}
			calc_true_if = {
				amount = 4
				trading_bonus = {
					trade_goods = precursor_relics
					value = yes
				}
				trading_bonus = {
					trade_goods = damestear
					value = yes
				}	
				trading_bonus = {
					trade_goods = chinaware
					value = yes
				}
				trading_bonus = {
					trade_goods = ivory
					value = yes
				}
				trading_bonus = {
					trade_goods = dyes
					value = yes
				}
				trading_bonus = {
					trade_goods = cloth
					value = yes
				}
				trading_bonus = {
					trade_goods = paper
					value = yes
				}
				trading_bonus = {
					trade_goods = fungi
					value = yes
				}
			}
			OR = {
				reform_level = 13
				trade_efficiency = 1
				num_of_missionaries = 5
			}
		}

		effect = {
			country_event = { id = flavour_kobildzan.15 }
		}
	}
}

kob_5_c = {
	slot = 5
	generic = no
	ai = yes
	has_country_shield = yes
	potential = {
		tag = Z38
		has_country_flag = Z38_had_roar_happen
	}

	Z38_lashing_out = {
		icon = mission_protect_white_sea_trade
		position = 13
		required_missions = { 
			Z38_in_raw_desperation
		}

		provinces_to_highlight = {
			OR = {
				AND = {
					region = dalr_region
					is_empty = no
					OR = {
						NOT = { owned_by = ROOT }
						NOT = { religion = kobold_dragon_cult }
					}
				}

				AND = {
					is_capital = yes
					owner = {
						religion = skaldhyrric_faith
						NOT = { has_been_insulted_by_root = yes }
					}
				}
			}
		}

		trigger = {
			dalr_region = {
				type = all 
				custom_trigger_tooltip = {
					tooltip = owned_and_dragon_cult_tt
					OR = {
						AND = {
							religion = kobold_dragon_cult 
							country_or_subject_holds = ROOT
						}
						is_empty = yes
					}
				}
			}			

			custom_trigger_tooltip = {
				tooltip = all_skaldhyrric_nations_insulted_tt 
				all_known_country = {
					OR = {		
						NOT = { religion = skaldhyrric_faith }
						has_been_insulted_by_root = yes
					}
				}
			}
		}

		effect = {
			custom_tooltip = all_skaldhyrric_claims_tt 
			hidden_effect = {
				every_province = {
					limit = { religion = skaldhyrric_faith }
					add_claim = ROOT 
				}
				vaengrheim_area = {
					add_claim = ROOT
				}
				nyrford_area = {
					add_claim = ROOT
				}
			}
			dalr_region = {
				add_devastation = 20
			}
			olavlund_region = {
				add_devastation = 20
			}
			gerudian_frontier_region = {
				add_devastation = 20
			}
			custom_tooltip = gerudians_dont_like_this_tt 
			hidden_effect = {
				country_event = { id = flavour_kobildzan.26 days = 400 }
			}
			custom_tooltip = unlock_gerudian_kobold_traps_tt
			hidden_effect = { set_country_flag = gerudian_traps_for_kobolds }	

			kdc_remove_aspect_2 = yes
			unlock_kobold_dragon_cult_for_colour_slot_upgrade = {
				COLOUR = white
				SLOT = 2
				UPGRADE = upgraded
			}
		}
	}

	Z38_ritual_of_awakening = {
		icon = mission_jorgurem_the_frozen
		position = 15
		required_missions = { 
			Z38_lashing_out
		}

		provinces_to_highlight = {
			OR = {
				AND = {
					province_id = 6271
					OR = {
						NOT = { owned_by = ROOT }
						NOT = { infantry_in_province = 40 }
					}
				}
				AND = {
					religion = skaldhyrric_faith
					OR = {
						continent = europe
						continent = north_america
						region = northern_pass_region
					}
				}
			}
		}

		trigger = {
			
			custom_trigger_tooltip = {
				tooltip = skaldy_province_tt
				NOT = {
					europe = {
						type = any
						religion = skaldhyrric_faith
					}
				}
				NOT = {
					north_america = {
						type = any
						religion = skaldhyrric_faith
					}
				}
				NOT = {
					northern_pass_region = {
						type = any
						religion = skaldhyrric_faith
					}
				}
			}
			6271 = {
				owned_by = ROOT
				infantry_in_province = 40 
			}
			custom_trigger_tooltip = {
				tooltip = has_dealt_with_fallout_tt
				had_country_flag = {
					flag = gerudian_traps_for_kobolds
					days = 730
				}
				
			}
			has_church_aspect = white_dragon_1_upgraded
		}

		effect = {
			country_event = { id = flavour_kobildzan.16 }
		}
	}

	Z38_the_alosian_skald_cult = {
		icon = mission_kirin
		position = 16
		required_missions = { 
			Z38_ritual_of_awakening
		}

		provinces_to_highlight = {
			province_group = gerudian_kobold_traps
			NOT = { owned_by = ROOT }
			NOT = { has_province_flag = has_kobold_traps }
		}

		trigger = {
			dalr_region = {
				owned_by = ROOT
				religion = kobold_dragon_cult
			}
			olavlund_region = {
				owned_by = ROOT
				religion = kobold_dragon_cult
			}
			num_of_owned_provinces_with = {
				value = 9
				province_group = gerudian_kobold_traps
				custom_trigger_tooltip = {
					tooltip = has_kobold_traps_tt 
					has_province_flag = has_kobold_traps
				}
			}
			has_church_aspect = copper_dragon_1_upgraded

			has_estate_privilege = artifice_invention_lullaby_cannon
			
		}

		effect = {
			add_country_modifier = {
				name = Z38_accepting_funny_gerudians
				duration = -1
			}

			custom_tooltip = gerudian_culture_tt 
			hidden_effect = {
				add_accepted_culture = west_dalr
				add_accepted_culture = east_dalr
				add_accepted_culture = olavish
			}

			kdc_remove_aspect_3 = yes
			unlock_kobold_dragon_cult_for_colour_slot_upgrade = {
				COLOUR = copper
				SLOT = 3
				UPGRADE = upgraded
			}

			custom_tooltip = ebonsteel_extraction_and_mage_tt 
			hidden_effect = {
				every_owned_province = {
					limit = { province_group = ebonsteel_provinces }
					add_permanent_province_modifier = { name = Z38_ebonsteel_extraction duration = -1 }
					add_building = mage_tower
				}
			}
		}
	}
}