#___________________________________________________________________#
#		:Files to edit when adding inventions Checklist:			#
#			1. estate_privleges/estate_artifice_privileges.txt		#
#			2. estates/99_artificers.txt							#
#			3. scripted_effects/artifice_scripted_effects.txt		#
#			4. events/ArtificeResearch.txt							#
#			5. common/custom_gui/countrydecisionsview.txt			#
#			6. scripted_triggers/anb_scripted_triggers_artifice.txt	#
#			7. Don't forget to localize your work					#
#-------------------------------------------------------------------#
#			:OPTIONAL: GFX/GUI editers only:						#
#			7. interface/countrydecisionsview.gui					#
#			8. interface/countrydecisionsview.gfx					#
#																	#
#			:GFX Assets Folder: 									#
#			9. gfx/interface/custom_gui/artificery					#
#																	#
#			Written By: Tators/River Doge							#
#___________________________________________________________________#
estate_artificers = {
	icon = 6

	# If true, country will get estate
	trigger = {	#putting this in one NOT = {} is better for perf
		has_country_flag = artificery_unlocked
		OR = {
			has_country_flag = magic_artificery_artificery_only
			has_country_flag = magic_artificery_mixed
		}
		NOT = {
			tag = R62
		}
	}

	# These scale with loyalty & power
	country_modifier_happy = {
		production_efficiency = 0.1
		technology_cost = -0.1
	}
	country_modifier_neutral = {
		production_efficiency = 0.05
		technology_cost = -0.05
	}
	country_modifier_angry = {
		production_efficiency = -0.1
		technology_cost = 0.1
	}
	land_ownership_modifier = {
		artificers_loyalty_modifier = 0.2
	}
	
	province_independence_weight = {
		factor = 1
		modifier = {
			factor = 0.5
			NOT = { development = 10 }
		}
		modifier = {
			factor = 1.2
			base_production = 10
		}
		modifier = {
			factor = 1.5
			base_production = 20
		}
		modifier = {
			factor = 2
			has_manufactory_trigger = yes
		}
	}
	
	# Influence modifiers
	base_influence = 0
	
	influence_modifier = {	
		desc = EST_HIGH_DEVELOPMENT_PROVINCE
		trigger = {
			any_owned_province = {
				development = 30
			}
		}
		influence = 5
	}
	influence_modifier = {	
		desc = EST_HAS_UNIVERSITY
		trigger = {
			any_owned_province = {
				has_building = university
			}
		}
		influence = 5
	}
	influence_modifier = {
		desc = EST_VAL_GNOMISH
		trigger = {
			OR = {
				culture_group = gnomish
				dominant_culture = creek_gnome
				dominant_culture = cliff_gnome
				dominant_culture = imperial_gnome
			}
		}
		influence = 5
	}
	influence_modifier = {
		desc = EST_VAL_LOW_PRODUCTION_INCOME
		trigger = {
			NOT = { production_income_percentage = 0.25 }
		}	
		influence = -5
	}
	influence_modifier = {
		desc = EST_VAL_HIGH_PRODUCTION_INCOME
		trigger = {
			production_income_percentage = 0.5
			NOT = { production_income_percentage = 0.75 }
		}	
		influence = 5
	}
	influence_modifier = {
		desc = EST_VAL_VERY_HIGH_PRODUCTION_INCOME
		trigger = {
			production_income_percentage = 0.75
		}	
		influence = 10
	}
	influence_modifier = {
		desc = EST_VAMPIRIC_LORD
		trigger = {
			has_estate_privilege = estate_vampires_organization_vampires_lord
		}	
		influence = -10
	}
	influence_modifier = {
		desc = EST_VAL_OTHER_ESTATE_IN_POWER
		trigger = {
			OR = {
				has_disaster = estate_nobility_disaster
				has_disaster = estate_church_disaster
				has_disaster = estate_mages_disaster
				has_disaster = estate_burghers_disaster
				has_disaster = estate_adventurers_disaster
				#has_disaster = estate_brahmins_disaster
				#has_disaster = estate_jains_disaster
			}
		}	
		influence = -40
	}
	influence_modifier = {
		desc = EST_Y15_GLOBAL_MARKET
		trigger = {
			has_global_flag = beikdugang_relic_market
		}	
		influence = 10
	}
	
	loyalty_modifier = {
		desc = EST_VAL_OTHER_ESTATE_IN_POWER_LOY
		trigger = {
			OR = {
				has_disaster = estate_nobility_disaster
				has_disaster = estate_church_disaster
				has_disaster = estate_mages_disaster
				has_disaster = estate_burghers_disaster
				has_disaster = estate_adventurers_disaster
				#has_disaster = estate_brahmins_disaster
				#has_disaster = estate_jains_disaster
			}
		}
		loyalty = -20
	}
	loyalty_modifier = {
		desc = EST_VAL_GNOMISH_LOY
		trigger = {
			culture_group = gnomish
		}
		loyalty = 5
	}

	
	# Custom Names

	custom_name = {
		desc = estate_innlak
		trigger = {
			culture_group = eordan_ruinborn_elf
			NOT = { has_country_flag = gemradcurt_artificers_rename }
		}
	}

	custom_name = {
		desc = estate_shuimu
		trigger = {
			OR = {
				was_tag = Y20
				tag = Y20
			}
		}
	}

	custom_name = {
		desc = estate_alchemists
		trigger = {
			OR = {
				was_tag = A99
				tag = A99
			}		
		}
	}

	custom_name = {
		desc = estate_steam_knights
		trigger = {
			tag = A77
		}
	}

	custom_name = {
		desc = estate_gemradcurt_artificers
		trigger = {
			tag = H16
			has_country_flag = gemradcurt_artificers_rename
		}
	}

	custom_name = {
		desc = estate_wishcrafters
		trigger = {
			or = {
				culture_group = bulwari
				culture = sun_elf
				culture = dawn_elf
				culture = desert_elf
				culture = zanlibi
				culture = firanyan_harpy
				culture = siadunan_harpy
				culture = exodus_goblin
			}
		}
	}

	custom_desc = {
		desc = estate_wishcrafters_desc
		trigger = {
			or = {
				culture_group = bulwari
				culture = sun_elf
				culture = dawn_elf
				culture = desert_elf
				culture = zanlibi
				culture = firanyan_harpy
				culture = siadunan_harpy
				culture = exodus_goblin
			}
		}
	}

	custom_name = {
		desc = estate_karakhanbar_artificers
		trigger = {
			tag = Z54
			has_country_flag = karakhanbar_orcish_artificers
		}
	}

	color = { 191 78 10 }

	privileges = {
		
		#estate_artificers_siegecraft
		#estate_artificers_loyalty_privilege
		#estate_artificers_monopoly_of_relics
		
		# Organizations
		estate_artificers_organization_international_gommo
		estate_artificers_organization_state
		estate_artificers_organization_independent_unions
		estate_artificers_organization_ravelian_control
		estate_artificers_organization_covenant
		estate_artificers_organization_sun_elf
		estate_artificers_organization_feiten_shuimu_cadre
		estate_artificers_organization_vazhatun_enhanced_astronomy
		estate_artificers_organization_discombobulatorium
		estate_artificers_organization_giberd_magisterium_oversight
		estate_artificers_organization_giberd_ravelian_guilds
		estate_artificers_organization_giberd_beacon_of_harmony
		
		# Non-Inventions Privileges
		estate_artificers_feiten_invest_engineering_workshop
		estate_artificers_feiten_starry_eye_promotion
		estate_artificers_feiten_grant_foreign_membership
		estate_artificers_clockwork_architects #Breluslad MT
		estate_artificers_monopoly_of_damestear
		estate_artificers_monopoly_of_relics
		estate_artificers_artificer_generals
		estate_artificers_relic_fueled_artificery
		estate_artificers_focus_on_quantity
		estate_artificers_gnommo_diplomacy
		estate_artificers_ravelian_emissaries
		estate_artificers_precursor_weapons
		estate_artificers_development_tools
		# estate_artificers_porcelain_shields
		estate_artificers_ivory_tools #what is this supposed to be called??
		estate_artificers_grant_production_rights
		estate_artificers_grand_exhibition_hall
		estate_artificery_gov_cap #what is this supposed to be called?
		estate_artificers_trained_mage_hunters
		estate_artificers_focus_on_artificer_units
		estate_artificers_draft_artificers #no effect, what is this?
		estate_artifice_wishcrafters_lazzaward #Mount Lazzaward Reward
		
		# Inventions
		
		#Generics
		#Tier 1 Society
		artifice_invention_viewcatcher
		artifice_invention_sending_stones
		artifice_invention_centipedal_chests
		artifice_invention_apparitional_communicator
		artifice_invention_living_mirrors
		artifice_invention_mystic_ciphers
		#Tier 1 Economic
		artifice_invention_self_cleaning_parchment
		artifice_invention_box_of_holding
		artifice_invention_spell_in_a_box
		artifice_invention_market_mender #new
		artifice_invention_arcane_battery_capital_complex #new
		artifice_invention_plane_of_water_teleporter #new
		#Tier 1 Military
		artifice_invention_portable_turrets
		artifice_invention_sparkdrive_rifles
		artifice_invention_artificer_exo_arms
		artifice_invention_vorpal_bullets
		artifice_invention_magic_missile_deployer
		artifice_invention_commercial_sky_galleons
		
		#Tier 2 Society
		artifice_invention_arithmatons
		artifice_invention_remedial_tinctures
		artifice_invention_think_thought_transmitters #new
		artifice_invention_mirage_detector_3000 #new
		artifice_invention_empire_engine #new
		#Tier 2 Economic
		artifice_invention_vendorless_stall
		artifice_invention_growth_beans
		artifice_invention_gene_food_cultivation
		artifice_invention_brass_prosthesis
		artifice_invention_subterrenes #new
		#Tier 2 Military
		artifice_invention_wandlocks
		artifice_invention_balloonboost_packs
		artifice_invention_war_golems
		artifice_invention_prototype_tanks
		artifice_invention_arcane_blaster
		
		#Tier 3 Society
		artifice_invention_crierless_crier_device
		artifice_invention_bureaucratizer #new
		artifice_invention_runethought_network #new
		artifice_invention_negotiation_nexus #new
		#Tier 3 Economic
		artifice_invention_t_wave_transceivers
		artifice_invention_elemental_locomotives
		artifice_invention_pathway_transmutation
		artifice_invention_naval_mageshields
		#Tier 3 Military
		artifice_invention_black_damestear_bullets
		artifice_invention_artillery_autoloader
		artifice_invention_bioartificed_ascension
		artifice_invention_personal_mageshields
		artifice_invention_military_sky_galleons
		artifice_invention_damestear_reactor_megacannon #new
		
		
		# #inventions
		# #basic
		# artifice_invention_worker_exoskeletons #generic
		# artifice_invention_message_kite #generic
		# artifice_invention_black_damestear_bullets #generic
		# artifice_invention_gnomish_longlooker
		# artifice_invention_clockwork_spotter
		# artifice_invention_bouncing_boom_bomb
		# artifice_invention_brain_juice
		# artifice_invention_prehensile_tail_attachments
		# artifice_invention_pop_up_tunnelers
		# artifice_invention_jousting_mech
		# artifice_invention_black_bayonets
		# artifice_invention_triunic_skybarge
		# artifice_invention_battleclaw
		# artifice_invention_seeing_mask
		# artifice_invention_warded_skyvessel
		# artifice_invention_ghostcloaks
		# artifice_invention_bigiron_guns
		# artifice_invention_leechcraft
		# #expert
		# artifice_invention_steam_rifles #generic
		# artifice_invention_airship_galleons #generic
		# artifice_invention_talking_stones #generic
		# artifice_invention_fantastic_conversation_calibrator
		# artifice_invention_sky_dinghies
		# artifice_invention_subterrenes
		# artifice_invention_elemental_gunpowder
		# artifice_invention_soarwing_grafts
		# artifice_invention_shiny_finder
		# artifice_invention_flesh_golems
		# artifice_invention_sunshine_barges
		# artifice_invention_skyfire
		# artifice_invention_sorncosti_mirror_weapon
		# artifice_invention_deep_elevators
		# artifice_invention_dazzling_orb
		# artifice_invention_taychendi_witness_raft
		# #advanced
		# artifice_invention_swarming_canister_shot #generic
		# artifice_invention_elemental_keels #generic
		# artifice_invention_workforged_shieldbearers #generic
		# artifice_invention_portal_cannon
		# artifice_invention_genius_container
		# artifice_invention_skycracker_bomb
		# artifice_invention_close_in_explosion_viewer
		# artifice_invention_think_thought_transmitters
		# artifice_invention_wallgrip_limbs
		# artifice_invention_wonderous_lunchbox
		# artifice_invention_heroic_tincture
		# artifice_invention_self_reloading_jezzail
		# artifice_invention_chained_blade
		# artifice_invention_warfare_simulator
		# artifice_invention_vanburian_mobile_armory
		# #masterwork
		# artifice_invention_workforged_laborers #generic
		# artifice_invention_haste_tonic #generic
		# artifice_invention_playwrights_wagon #generic
		# artifice_invention_do_everything_device
		# artifice_invention_superiority_class_forcefield
		# artifice_invention_damestear_reactor_megacannon
		# artifice_invention_smokefliers
		# artifice_invention_dragonfire_dome
		# artifice_invention_scion_serum
		# artifice_invention_masterwork_tanks
		# artifice_invention_season_controller
		# artifice_invention_captain_aelantir_serum
		# artifice_invention_captain_aelnar_serum
		# artifice_invention_giantshape_warsuit
		
		# Mission Inventions
		# artifice_invention_vanbury_arms_powersuit

		
		# Religion/Culture Inventions

		#Racial Military
		#10
		artifice_invention_dragonscale_plating
		artifice_invention_predator_exoskeleton
		artifice_invention_scrap_mechs
		#20
		artifice_invention_controlled_rage_serum
		artifice_invention_codorran_powered_exosuit
		artifice_invention_giantshape_warframe
		artifice_invention_gu_boats
		artifice_invention_eplusplus_compound
		artifice_invention_gyrocopters
		artifice_invention_platinum_warsuit
		#30
		artifice_invention_elemental_gunpowder
		artifice_invention_chase_em_rockets
		artifice_invention_dragonblood_gene_warriors
		#Religion
		#10
		artifice_invention_ancestral_golems #10
		artifice_invention_fey_spray #10
		#20
		artifice_invention_wind_invokers #20
		artifice_invention_chi_cultivation #20
		artifice_invention_great_processor #20
		artifice_invention_god_fragment_decoder #20
		artifice_invention_artifice_hunting_masks #20
		artifice_invention_lullaby_cannon #20
		artifice_invention_power_fists
		artifice_invention_game_of_khet
		#30
		artifice_invention_talking_god_temples #30
		artifice_invention_think_quik_drink_mix #30
		artifice_invention_antimagic_field_generator #30
		#Cultural
		#10
		artifice_invention_automated_translator #10
		artifice_invention_pearl_cultivators #10
		artifice_invention_fine_print_obfuscator #10
		artifice_invention_superfast_elevators #10
		artifice_invention_wine_ageifier
		artifice_invention_scrapperclaws
		artifice_invention_believable_ruin_bomb
		artifice_invention_vernman_hero_tonic
		artifice_invention_war_rigs
		artifice_invention_sunbeam_armaments
		#20
		artifice_invention_avatar_supersoldier_serum #20
		artifice_invention_warfare_simulator #20
		artifice_invention_city_maintenance_bots #20
		artifice_invention_prefabricated_city_constructors #20
		artifice_invention_prehensile_tail_attachments #20
		artifice_invention_soarwing_grafts #20
		artifice_invention_conversation_calibrator
		artifice_invention_burrower_arms
		artifice_invention_wonderous_lunchbox
		artifice_invention_veykoda_rune_protections
		artifice_invention_kaydhano_powered_vessels
		artifice_invention_high_velocity_irrigation
		#30
		artifice_invention_demonflame_flamethrowers #30
		artifice_invention_artificial_egg_surrogates #30
		artifice_invention_weather_predicticator #30
		artifice_invention_divendancer_speedboat
		artifice_invention_artifice_powered_magnate_factories
		#Special
		#10
		artifice_invention_korashi_drills
		#20
		#30
		# artifice_invention_game_of_khet
		# artifice_invention_sunblotter_cream
		
		# Feiten Inventions
		artifice_invention_feiten_nitroglycerin_rockets #30
		artifice_invention_feiten_nitroglycerin_tnt #20
		artifice_invention_feiten_farsight_telescopes #20
		artifice_invention_feiten_porcelain_caged_firebirds #20
		artifice_invention_feiten_specialized_construction_arms #10
		artifice_invention_feiten_expanding_storage_holds #20
		artifice_invention_feiten_skywriting #10
		artifice_invention_feiten_electroplated_armor #30
		artifice_invention_feiten_ivory_conduits #30
		artifice_invention_feiten_silken_cladding #10
		artifice_invention_feiten_damestear_ribbing #10
		artifice_invention_feiten_long_rockets #30
		artifice_invention_feiten_lightning_amplifier #20
		artifice_invention_feiten_steel_rudders #20

		#Varaine potions inventions
		artifice_invention_varaine_fertility_potions #10
		artifice_invention_varaine_medicinal_potions #10
		artifice_invention_varaine_mana_potions #10
		artifice_invention_varaine_trollskin_potions #20
		artifice_invention_varaine_flight_potions #20
		artifice_invention_varaine_strength_potions #20
		artifice_invention_varaine_water_potions #20
		artifice_invention_varaine_fire_potions #20

		#Snotfinger Drugs
		artifice_invention_snotfinger_stimulant #10
		artifice_invention_snotfinger_hallucinogen #10
		artifice_invention_snotfinger_drakodil #20
		artifice_invention_snotfinger_calmant #20
		artifice_invention_snotfinger_synthetic #30

		#Allclan Inventions
		artifice_invention_allclan_rainblow #20
		artifice_invention_allclan_stealth_gob #20
		artifice_invention_allclan_catastrophizer #20
		artifice_invention_allclan_BOMBNAR #10
		artifice_invention_allclan_actual_ruin_bomb #40
		artifice_invention_allclan_freezeflame #20
		artifice_invention_allclan_noodle_noggin #20
		artifice_invention_allclan_drill_shells #30
		artifice_invention_allclan_super_boots #20

		#Taychendi Empire Inventions
		artifice_invention_taychend_demon_powered_flame_rigs #20
		artifice_invention_taychend_prism_cored_war_machines #20
		artifice_invention_taychend_effelai_growth_stimulants #20
		artifice_invention_taychend_imitation_seedthralls #20
		artifice_invention_taychend_artifice_augmented_kotakompu #20
		artifice_invention_taychend_relic_lord_prototype_power_armour #30

		#Missions Misc
		artifice_invention_vg_musket_precursor_edition #30
		artifice_invention_spirit_proof_exoskeleton #Arawekelin 10
		artifice_invention_yingzhen_antibeacons #Yingzhin 10
		artifice_invention_asra_model_golem_peacekeepers #Khugdihr 20
		artifice_invention_asra_model_golem_army #Khugdihr 20
		artifice_invention_honsai_reinforced_cannons #Hon Sai 20
		artifice_invention_honsai_instant_messages #Hon Sai 20
		artifice_invention_ameion_lift_generator #Ameion (Tacenie) 20
		artifice_invention_shatterproof_armor #Orlghelovar 10
		artifice_invention_normalizer #Cestirmark 20
		artifice_invention_bond_breaker #Freemarches 10
		#artificer_invention_sil_vis_concrete #Thilvis
		artifice_invention_the_carousel #Plumstead 10
		artifice_endura_reigns #Plumstead 10
		artifice_everlasting_fertilizer #Plumstead 10
		artifice_invention_karakhanbar_high_heat_smelters #Karakhanbar 10
		artifice_invention_karakhanbar_black_hearth_torches #Karakhanbar 30
		artifice_invention_holy_gunblade # Orda Aldresia 10
		artifice_invention_ironwraith_weapons_platform #Maghargma 20
		artifice_invention_spirit_capture_tech #Maghargma 20
		artifice_invention_bramble_burners #Brambleskinner 10
		artifice_invention_kobildzan_draconic_ascension #Kobildzan 10
	}
	
	agendas = {
		estate_artificers_conquer_damestear
		estate_artificers_conquer_precursor_relics
		estate_artificers_conquer_high_production
		estate_artificers_build_production_building_damestear
		estate_artificers_build_production_building_precursor_relics
		estate_artificers_build_university_in_y
		estate_artificers_privateer_damestear_relics
		estate_artificers_build_manufactory_in_y
		estate_artificers_develop_damestear_in_y
		estate_artificers_develop_precursor_relics_in_y
		estate_artificers_develop_x
	}
	influence_from_dev_modifier = 0.5
}