
country_decisions = {

	castellyr_nation = {
		major = yes
		potential = {
			capital_scope = {
				region = inner_castanor_region
			}
			OR = { 
				culture_group = escanni
				has_reform = adventurer_reform
			}
			NOT = { exists = B31 } #Castellyr doesn't exist
			# NOT = { exists = Z34 } #Black Castanor doesn't exist
			# NOT = { exists = B32 } #Castanor doesn't exist
			NOT = { tag = B56 } #Silvermere
			NOT = { tag = B33 } #Blademarches
			NOT = { tag = Z45 } #Vrorenmarch
			NOT = { tag = B58 } #Adenica
			NOT = { tag = B60 } #Farranean
			NOT = { tag = B61 } # Edhardrachon
			
			NOT = { has_country_flag = feudal_escann_kingdom }	#prevents countries like Blademarches from forming
			NOT = { has_country_flag = orc_nation_formed }	#prevents orc formables from forming it
			NOT = { has_country_flag = adventurer_derived_government }	#if you've formed something like Nurcestir, you wont be able to form Castellyr. You need to form it while you're an adventurer

			OR = {
				ai = no
				is_playing_custom_nation = no
			}
			OR = {
				ai = no
				AND = {
					ai = yes
					num_of_cities = 3
				}
			}
			is_colonial_nation = no
			OR = {
				is_former_colonial_nation = no
				AND = {
					is_former_colonial_nation = yes
					ai = no
				}
			}
			normal_or_historical_nations = yes
			was_never_end_game_tag_trigger = yes
			NOT = { has_country_flag = formed_castellyr_flag }
		}
		provinces_to_highlight = {
			OR = {
				AND = {
					province_id = 840
					OR = {
						NOT = { is_core = ROOT }
						NOT = { owned_by = ROOT }
					}
				}
				AND = {
					region = inner_castanor_region
					NOT = {
						ROOT = {
							num_of_owned_provinces_with = {
								value = 10
								region = inner_castanor_region
							}
						}
					}
					NOT = { owned_by = ROOT }
				}
			}
		}
		allow = {
			owns_core_province = 840	#North Citadel
			OR = {
				adm_tech = 7
				custom_trigger_tooltip = {
					tooltip = cl_castellyr_early_tt
					has_country_flag = cl_early_castellyr
				}
			}
			government_rank = 1
			is_free_or_tributary_trigger = yes
			is_at_war = no
			if = {
				limit = { has_adventurer_reform = yes }
				has_reform = found_our_nation
				has_reform = local_administration
			}
			#num_of_cities = 5
			num_of_owned_provinces_with = {
				value = 10
				region = inner_castanor_region
			}
		}
		effect = {
			if = {
				limit = { has_reform = adventurer_reform }
				set_country_flag = adventurer_derived_government
			}
			change_tag = B31
			set_country_flag = feudal_escann_kingdom
			set_country_flag = no_formable_culture_shift
			clr_country_flag = is_a_county
			if = {
				limit = { OR = { has_reform = adventurer_reform has_country_flag = adventurer_derived_government } }
				adventurer_legacy_effect = yes
				country_event = { id = marcher.1 days = 1 }
#				country_event = { id = adventurer.2 days = 1 }
			}
			hidden_effect = { restore_country_name = yes }
			custom_tooltip = tooltip_castellyrian_culture_provinces
			hidden_effect = {
				every_owned_province = {
					limit = {
						has_owner_culture = yes
						owner = {
							culture_is_human = yes
						}
					}
					change_culture = castellyrian
				}
			}
			primary_and_ruler_culture_change = { race = human new_culture = castellyrian }
			remove_non_electors_emperors_from_empire_effect = yes
			swap_non_generic_missions = yes
			if = {
				limit = {
					NOT = { government_rank = 2 }
				}
				set_government_rank = 2
			}
			if = { #Anbenncost Expedition
				limit = { was_tag = B16 }
				capital_scope = { 
					add_elven_minority_size_effect = yes 
					add_half_elven_minority_size_effect = yes
					add_halfling_minority_size_effect = yes
					add_dwarven_minority_size_effect = yes
				}
			}
			else_if = { #New Wanderers
				limit = {
					was_tag = B15
					religion = elikhetist
					is_religion_enabled = corinite
				}
				hidden_effect = { country_event = { id = flavor_elikhand.3 days = 30 } }
			}
			
			#Claims
			castonath_area = {
				limit = {
					NOT = { owned_by = ROOT }
				}
				add_claim = B31
			}
			trialmount_area = {
				limit = {
					NOT = { owned_by = ROOT }
				}
				add_claim = B31
			}
			lower_nath_area = {
				limit = {
					NOT = { owned_by = ROOT }
				}
				add_claim = B31
			}
			upper_nath_area = {
				limit = {
					NOT = { owned_by = ROOT }
				}
				add_claim = B31
			}
			westgate_area = {
				limit = {
					NOT = { owned_by = ROOT }
				}
				add_claim = B31
			}
			southgate_area = {
				limit = {
					NOT = { owned_by = ROOT }
				}
				add_claim = B31
			}
			nortmere_area = {
				limit = {
					NOT = { owned_by = ROOT }
				}
				add_claim = B31
			}
			add_prestige = 50
			add_country_modifier = {
				name = "centralization_modifier"
				duration = 7300
			}
			set_country_flag = formed_castellyr_flag
			clr_country_flag = knightly_order_adventurer
#			country_event = { id = adventurer.2 days = 10 }
			if = {
				limit = { has_custom_ideas = no }
				country_event = { id = ideagroups.1 } #Swap Ideas
			}
		}
		ai_will_do = {
			factor = 2
		}
		ai_importance = 400
	}
	
	ai_consolidation = {
		major = yes
		potential = {
			has_global_flag = escanni_wars_global_flag
			NOT = { is_year = 1661 }
			ai = yes
			country_culture_can_participate_in_escanni_wars = yes
			capital_scope = {
				province_group = escann_proper
			}
		}
		
		provinces_to_highlight = {
			province_group = escann_proper
			NOT = { country_or_non_sovereign_subject_holds = ROOT }
		}

		allow = {
			hidden_trigger = {
				has_global_flag = escanni_wars_global_flag
			}
			south_castanor_region = {
				type = all
				country_or_non_sovereign_subject_holds = ROOT
			}
			west_castanor_region = {
				type = all
				country_or_non_sovereign_subject_holds = ROOT
			}
			inner_castanor_region = {
				type = all
				country_or_non_sovereign_subject_holds = ROOT
			}
			cursewood_area = {
				type = all
				country_or_non_sovereign_subject_holds = ROOT
			}
			whistlevale_area = {
				type = all
				country_or_non_sovereign_subject_holds = ROOT
			}
		}

		effect = {
			country_event = { id = escanni_wars.2 }
		}
		ai_will_do = {
			factor = 2
		}
		ai_importance = 400
	}
	
	castanor_nation = {
		major = yes
		potential = {
			OR = {
				has_country_flag = reformed_escanni_adventurer
				has_country_flag = formed_adenica_flag
				has_country_flag = formed_blademarches_flag
				has_country_flag = formed_castellyr_flag
				has_country_flag = formed_farranean_flag
				has_country_flag = formed_corintar_flag
				tag = B36
			}
			NOT = { has_country_flag = destroyed_the_trialmount } #Wyvernheart can't form Castanor if they destroy the Trialmount
			NOT = { is_or_was_tag = { tag = B32 }} #Castanor doesn't exist
			#NOT = { exists = Z34 } #Black Castanor doesn't exist
			#NOT = { tag = B33 } #Blademarches hate Castanor
			NOT = { tag = Z34 }	#Black Castanor cannot into Castanor
			OR = {
				ai = no
				is_playing_custom_nation = no
			}
			OR = {
				ai = no
				AND = {
					ai = yes
					num_of_cities = 3
				}
			}
			is_colonial_nation = no
			OR = {
				is_former_colonial_nation = no
				AND = {
					is_former_colonial_nation = yes
					ai = no
				}
			}
		}
		
		provinces_to_highlight = {
			OR = {
				province_id = 840
				province_id = 833
				province_id = 831
				province_id = 832
			}
			OR = {
				NOT = { owned_by = ROOT }
				NOT = { is_core = ROOT }
			}
		}
		
		allow = {
			custom_trigger_tooltip = {
				tooltip = can_form_castanor_tooltip
				has_country_flag = escanni_wars_castanor_option_unlocked
			}

			#Requires provinces
			owns_core_province = 840	#North Citadel
			castonath_area = {
				type = all
				is_core = ROOT
				owned_by = ROOT
			}
			#adm_tech = 10
			is_free_or_tributary_trigger = yes
			is_at_war = no
			
			has_estate = estate_castonath_patricians
			
			840 = { has_province_modifier = castanorian_citadel }
			custom_trigger_tooltip = {
				tooltip = already_attempted_trials
				NOT = { has_ruler_flag = attempted_trials_within_lifetime }
			}
		}
		effect = {
			custom_tooltip = take_trials_form_castanor_effect_tt
			if = {
				limit = {
					ai = yes
				}
				change_tag = B32
				country_event = { id = ideagroups.1 } #Swap Ideas
				swap_non_generic_missions = yes
			}
			else = {
				set_country_flag = try_castanor_trials_decision_taken
				set_ruler_flag = attempted_trials_within_lifetime
			}
		}
		ai_will_do = {
			factor = 2
		}
		ai_importance = 400
	}

	blademarches_nation = {
		major = yes
		potential = {
			capital_scope = {
				region = south_castanor_region
			}
			NOT = { has_country_flag = feudal_escann_kingdom }
			NOT = { has_country_flag = adventurer_derived_government }
			OR = {
				ai = no
				is_playing_custom_nation = no
			}
			OR = {
				ai = no
				AND = {
					ai = yes
					num_of_cities = 3
				}
			}
			is_colonial_nation = no
			OR = {
				is_former_colonial_nation = no
				AND = {
					is_former_colonial_nation = yes
					ai = no
				}
			}
			normal_or_historical_nations = yes
			was_never_end_game_tag_trigger = yes
			NOT = { has_country_flag = formed_blademarches_flag }
			NOT = { exists = B33 } #Blademarches doesn't exist
			NOT = { tag = B56 } #Silvermere
			NOT = { tag = B31 } #Castellyr
			NOT = { tag = Z45 } #Vrorenmarch
			NOT = { tag = B58 } #Adenica
			NOT = { tag = B60 } #Farranean
		}
		
		provinces_to_highlight = {
			OR = {
				area = blademarch_area
				area = clovenwood_area
				area = banesfork_area
				area = beastgrave_area
				area = vernham_area
				area = dostans_way_area
				area = devaced_area
			}
			NOT = {
				ROOT = {
					num_of_owned_provinces_with = {
						value = 5
						OR = {
							area = blademarch_area
							area = clovenwood_area
							area = banesfork_area
							area = beastgrave_area
							area = vernham_area
							area = dostans_way_area
							area = devaced_area
						}
					}
				}
			}
			NOT = { owned_by = ROOT }
		}
		
		allow = {
			hidden_trigger = {
				capital_scope = {
					region = south_castanor_region
				}
			}
			adm_tech = 7
			government_rank = 1
			is_free_or_tributary_trigger = yes
			is_at_war = no
			NOT = { has_country_modifier = monstrous_nation }
			
			if = {
				limit = { has_adventurer_reform = yes }
				has_reform = found_our_nation
				has_reform = local_administration
			}
			#num_of_cities = 5
			
			#Ruler Prerequisites
			OR = {
				mil = 5 #Ruler has at least 5 mil
				ruler_has_personality = just_personality
				ruler_has_personality = righteous_personality
				ruler_has_personality = bold_fighter_personality
				ruler_has_personality = inspiring_leader_personality
			}
			NOT = { ruler_has_personality = craven_personality }
			
			#Province Prerequisites
			num_of_owned_provinces_with = {
				value = 5
				OR = {
					area = blademarch_area
					area = clovenwood_area
					area = banesfork_area
					area = beastgrave_area
					area = vernham_area
					area = dostans_way_area
					area = devaced_area
				}
			}
		}
		effect = {
			if = {
				limit = { has_reform = adventurer_reform }
				set_country_flag = adventurer_derived_government
				tooltip = {
					adventurer_legacy_effect = yes
					country_event = { id = flavor_blademarches.1 days = 1 }
#					country_event = { id = adventurer.2 days = 1 }
				}
			}
			change_tag = B33
			if = {
				limit = { OR = { has_reform = adventurer_reform has_country_flag = adventurer_derived_government } }
				adventurer_legacy_effect = yes
				country_event = { id = flavor_blademarches.1 days = 1 }
#				country_event = { id = adventurer.2 days = 1 }
			}
			if = {
				limit = {
					has_country_modifier = human_administration
				}
				custom_tooltip = tooltip_marcher_culture_provinces
				hidden_effect = {
					every_owned_province = {
						limit = {
							has_owner_culture = yes
							owner = {
								culture_is_human = yes
							}
						}
						change_culture = marcher
					}
				}
			}
			if = {
				limit = { ruler_culture = ROOT ruler_is_human = yes }
				set_ruler_culture = marcher
			}
			if = {
				limit = { has_heir = yes heir_culture = ROOT heir_is_human = yes }
				set_heir_culture = marcher
			}
			if = {
				limit = { has_consort = yes consort_culture = ROOT consort_is_human = yes }
				set_consort_culture = marcher
			}
			if = {
				limit = {
					has_country_modifier = human_administration
				}
				change_primary_culture = marcher
				
			}
			set_country_flag = feudal_escann_kingdom
			set_country_flag = no_formable_culture_shift
			hidden_effect = { restore_country_name = yes }
			remove_non_electors_emperors_from_empire_effect = yes
			if = {
				limit = { NOT = { government = monarchy } }
				change_government = monarchy
			}
			add_government_reform = blademarches_kingdom_reform
			if = {
				limit = {
					NOT = { government_rank = 2 }
				}
				set_government_rank = 2
			}
			if = { #Anbenncost Expedition
				limit = { was_tag = B16 }
				capital_scope = { 
					add_elven_minority_size_effect = yes 
					add_half_elven_minority_size_effect = yes
					add_halfling_minority_size_effect = yes
					add_dwarven_minority_size_effect = yes
				}
			}
			else_if = { #New Wanderers
				limit = {
					was_tag = B15
					religion = elikhetist
					is_religion_enabled = corinite
				}
				hidden_effect = { country_event = { id = flavor_elikhand.3 days = 30 } }
			}
			
			#Claims
			blademarch_area = {
				limit = {
					NOT = { owned_by = ROOT }
				}
				add_claim = B33
			}
			clovenwood_area = {
				limit = {
					NOT = { owned_by = ROOT }
				}
				add_claim = B33
			}
			banesfork_area = {
				limit = {
					NOT = { owned_by = ROOT }
				}
				add_claim = B33
			}
			beastgrave_area = {
				limit = {
					NOT = { owned_by = ROOT }
				}
				add_claim = B33
			}
			vernham_area = {
				limit = {
					NOT = { owned_by = ROOT }
				}
				add_claim = B33
			}
			dostans_way_area = {
				limit = {
					NOT = { owned_by = ROOT }
				}
				add_claim = B33
			}
			add_prestige = 25
			set_country_flag = formed_blademarches_flag
			clr_country_flag = 	knightly_order_adventurer
#			country_event = { id = adventurer.2 days = 10 }
			if = {
				limit = { has_custom_ideas = no }
				country_event = { id = ideagroups.1 } #Swap Ideas
			}
			country_event = { id = flavor_blademarches.2 days = 5 }
			swap_non_generic_missions = yes
		}
		ai_will_do = {
			factor = 2
			modifier = {	#Orcish Formables won't form Blademarches
				OR = {
					tag = Z50
					tag = Z51
					tag = Z52
					tag = Z53
				}
				factor = 0
			}
		}
		ai_importance = 400
	}
	
	adenica_nation = {
		major = yes
		potential = {
			capital_scope = {
				region = west_castanor_region
			}
			OR = { 
				culture_group = escanni
				has_reform = adventurer_reform
			}
			religion = regent_court
			NOT = { has_country_flag = formed_adenica_flag }
			NOT = { exists = B58 } #Adenica doesn't exist
			NOT = { tag = B56 } #Silvermere
			NOT = { tag = B31 } #Castellyr
			NOT = { tag = B33 } #Blademarches
			NOT = { tag = Z45 } #Vrorenmarch
			NOT = { tag = B60 } #Farranean
			NOT = { tag = B02 } #Corintar
			
			NOT = { has_country_flag = feudal_escann_kingdom }	#prevents countries like Blademarches from forming
			NOT = { has_country_flag = orc_nation_formed }	#prevents orc formables from forming it
			NOT = { has_country_flag = adventurer_derived_government }	#if you've formed something like Nurcestir, you wont be able to form Castellyr. You need to form it while you're an adventurer

			OR = {
				ai = no
				is_playing_custom_nation = no
			}
			OR = {
				ai = no
				AND = {
					ai = yes
					num_of_cities = 3
				}
			}
			is_colonial_nation = no
			OR = {
				is_former_colonial_nation = no
				AND = {
					is_former_colonial_nation = yes
					ai = no
				}
			}
			normal_or_historical_nations = yes
			was_never_end_game_tag_trigger = yes
		}
		
		provinces_to_highlight = {
			OR = {
				AND = {
					province_id = 774
					OR = {
						NOT = { is_core = ROOT }
						NOT = { owned_by = ROOT }
					}
				}
				AND = {
					region = west_castanor_region
					NOT = {
						ROOT = {
							num_of_owned_provinces_with = {
								value = 10
								region = west_castanor_region
							}
						}
					}
					NOT = { owned_by = ROOT }
				}
			}
		}
		
		allow = {
			owns_core_province = 774	#Taranton
			adm_tech = 7
			government_rank = 1
			is_free_or_tributary_trigger = yes
			is_at_war = no
			if = {
				limit = { has_adventurer_reform = yes }
				has_reform = found_our_nation
				has_reform = local_administration
			}
			#num_of_cities = 5			
			if = {
				limit = { has_dlc = "Wealth of Nations" }
				has_personal_deity = adean
			}
			num_of_owned_provinces_with = {
				value = 10
				region = west_castanor_region
			}
		}
		effect = {
			if = {
				limit = { has_reform = adventurer_reform }
				set_country_flag = adventurer_derived_government
			}
			change_tag = B58
			set_country_flag = feudal_escann_kingdom
			set_country_flag = no_formable_culture_shift
			if = {
				limit = { OR = { has_reform = adventurer_reform has_country_flag = adventurer_derived_government } }
				adventurer_legacy_effect = yes
				country_event = { id = marcher.1 days = 1 }
#				country_event = { id = adventurer.2 days = 1 }
			}
			else = {
				if = {
					limit = { NOT = { government = monarchy } }
					change_government = monarchy
				}
			}
			hidden_effect = { restore_country_name = yes }
			774 = {
				move_capital_effect = yes
			}
			custom_tooltip = tooltip_adenner_culture_provinces
			hidden_effect = {
				every_owned_province = {
					limit = {
						has_owner_culture = yes
						owner = {
							culture_is_human = yes
						}
					}
					change_culture = adenner
				}
			}
			primary_and_ruler_culture_change = { race = human new_culture = adenner }
			remove_non_electors_emperors_from_empire_effect = yes
			if = {
				limit = {
					NOT = { government_rank = 2 }
				}
				set_government_rank = 2
			}
			if = { #Anbenncost Expedition
				limit = { was_tag = B16 }
				capital_scope = { 
					add_elven_minority_size_effect = yes 
					add_half_elven_minority_size_effect = yes
					add_halfling_minority_size_effect = yes
					add_dwarven_minority_size_effect = yes
				}
			}
			
			#Claims
			rohibon_area = {
				limit = {
					NOT = { owned_by = ROOT }
				}
				add_claim = B58
			}
			adenica_area = {
				limit = {
					NOT = { owned_by = ROOT }
				}
				add_claim = B58
			}
			taran_plains_area = {
				limit = {
					NOT = { owned_by = ROOT }
				}
				add_claim = B58
			}
			balmire_area = {
				limit = {
					NOT = { owned_by = ROOT }
				}
				add_claim = B58
			}
			falsemire_area = {
				limit = {
					NOT = { owned_by = ROOT }
				}
				add_claim = B58
			}
			verteben_area = {
				limit = {
					NOT = { owned_by = ROOT }
				}
				add_claim = B58
			}
			valefort_area = {
				limit = {
					NOT = { owned_by = ROOT }
				}
				add_claim = B58
			}
			
			
			add_prestige = 50
			add_country_modifier = {
				name = "centralization_modifier"
				duration = 7300
			}
			set_country_flag = formed_adenica_flag
			clr_country_flag = 	knightly_order_adventurer
#			country_event = { id = adventurer.2 days = 10 }
			if = {
				limit = { has_custom_ideas = no }
				country_event = { id = ideagroups.1 } #Swap Ideas
			}
			swap_non_generic_missions = yes
			hidden_effect = {
				set_variable = {
					which = adenicaChivalryMissionsCompleted
					value = 0
				}
				set_variable = {
					which = adenicaReligiousWarsWon
					value = 0
				}
				set_variable = {
					which = adenicaWarsWon
					value = 0
				}
				set_variable = {
					which = adenicaOrcWarsWon
					value = 0
				}
			}
		}
		ai_will_do = {
			factor = 2
		}
		ai_importance = 400
	}
	
	farranean_nation = {
		major = yes
		potential = {
			capital_scope = {
				OR = {
					region = west_castanor_region
					region = forlorn_vale_region
				}
			}
			OR = { 
				culture_group = escanni
				has_reform = adventurer_reform
			}
			NOT = { has_country_flag = formed_farranean_flag }
			NOT = { exists = B60 } #Farranean doesn't exist
			NOT = { tag = B56 } #Silvermere
			NOT = { tag = B31 } #Castellyr
			NOT = { tag = B33 } #Blademarches
			NOT = { tag = Z45 } #Vrorenmarch
			NOT = { tag = B58 } #Adenica
			
			NOT = { has_country_flag = feudal_escann_kingdom }	#prevents countries like Blademarches from forming
			NOT = { has_country_flag = orc_nation_formed }	#prevents orc formables from forming it
			NOT = { has_country_flag = adventurer_derived_government }	#if you've formed something like Nurcestir, you wont be able to form Castellyr. You need to form it while you're an adventurer

			OR = {
				ai = no
				is_playing_custom_nation = no
			}
			OR = {
				ai = no
				AND = {
					ai = yes
					num_of_cities = 3
				}
			}
			is_colonial_nation = no
			OR = {
				is_former_colonial_nation = no
				AND = {
					is_former_colonial_nation = yes
					ai = no
				}
			}
			normal_or_historical_nations = yes
			was_never_end_game_tag_trigger = yes
		}
		
		provinces_to_highlight = {
			OR = {
				AND = {
					province_id = 777
					OR = {
						NOT = { is_core = ROOT }
						NOT = { owned_by = ROOT }
					}
				}
				AND = {
					OR = {
						region = forlorn_vale_region
						area = valefort_area
					}
					NOT = {
						Root = {
							num_of_owned_provinces_with = {
								value = 8
								OR = {
									region = forlorn_vale_region
									area = valefort_area
								}
							}
						}
					}
					NOT = { owned_by = ROOT }
				}
			}
		}
		
		allow = {
			owns_core_province = 777	#Escin
			adm_tech = 7
			government_rank = 1
			is_free_or_tributary_trigger = yes
			is_at_war = no
			if = {
				limit = { has_adventurer_reform = yes }
				has_reform = found_our_nation
				has_reform = local_administration
			}
			#num_of_cities = 5
			
			num_of_owned_provinces_with = {
				value = 8
				OR = {
					region = forlorn_vale_region
					area = valefort_area
				}
			}	
		}
		effect = {
			if = {
				limit = { has_reform = adventurer_reform }
				set_country_flag = adventurer_derived_government
			}
			change_tag = B60
			set_country_flag = feudal_escann_kingdom
			set_country_flag = no_formable_culture_shift
			if = {
				limit = { OR = { has_reform = adventurer_reform has_country_flag = adventurer_derived_government } }
				adventurer_legacy_effect = yes
				country_event = { id = marcher.1 days = 1 }
#				country_event = { id = adventurer.2 days = 1 }
			}
			hidden_effect = { restore_country_name = yes }
			777 = {				# Taranton
				move_capital_effect = yes
			}
			custom_tooltip = tooltip_farrani_culture_provinces
			#To be redone with Farranean MT 
			hidden_effect = {
				every_owned_province = {
					limit = {
						has_owner_culture = yes
						owner = {
							culture_is_human = yes
						}
					}
					change_culture = farrani_half_elf
				}
			}
			change_primary_culture =  farrani_half_elf
			#Ruler Culture used to be here, special event to be added with MT in the future
			remove_non_electors_emperors_from_empire_effect = yes
			if = {
				limit = {
					NOT = { government_rank = 2 }
				}
				set_government_rank = 2
			}
			if = { #Anbenncost Expedition
				limit = { was_tag = B16 }
				capital_scope = { 
					add_elven_minority_size_effect = yes 
					add_half_elven_minority_size_effect = yes
					add_halfling_minority_size_effect = yes
					add_dwarven_minority_size_effect = yes
				}
			}
			else_if = { #New Wanderers
				limit = {
					was_tag = B15
					religion = elikhetist
					is_religion_enabled = corinite
				}
				hidden_effect = { country_event = { id = flavor_elikhand.3 days = 30 } }
			}
			#Claims
			whistlevale_area = {
				limit = {
					NOT = { owned_by = ROOT }
				}
				add_claim = B60
			}
			cursewood_area = {
				limit = {
					NOT = { owned_by = ROOT }
				}
				add_claim = B60
			}
			valefort_area = {
				limit = {
					NOT = { owned_by = ROOT }
				}
				add_claim = B60
			}
			
			
			add_prestige = 50
			add_country_modifier = {
				name = "centralization_modifier"
				duration = 7300
			}
			set_country_flag = formed_farranean_flag
			clr_country_flag = 	knightly_order_adventurer
#			country_event = { id = adventurer.2 days = 10 }
			if = {
				limit = { has_custom_ideas = no }
				country_event = { id = ideagroups.1 } #Swap Ideas
			}
			# swap_non_generic_missions = yes
		}
		ai_will_do = {
			factor = 2
		}
		ai_importance = 400
	}
	
	vrorenmarch_nation = {
		major = yes
		potential = {
			culture_group = escanni
			NOT = { culture_is_half_orcish = yes }
			normal_or_historical_nations = yes
			was_never_end_game_tag_trigger = yes
			NOT = { has_country_flag = formed_vrorenmarch_flag }
			NOT = { exists = Z45 } #Vrorenmarch doesn't exist
			NOT = { tag = B56 } #Silvermere
			NOT = { tag = B33 } #Blademarches
			NOT = { tag = B31 } #Castellyr
			NOT = { tag = B58 } #Adenica
			NOT = { is_subject_of_type = acolyte_dominion }
			
			NOT = { has_country_flag = feudal_escann_kingdom }	#prevents countries like Blademarches from forming
			NOT = { has_country_flag = orc_nation_formed }	#prevents orc formables from forming it
			NOT = { has_country_flag = adventurer_derived_government }	#if you've formed something like Nurcestir, you wont be able to form Castellyr. You need to form it while you're an adventurer

			OR = {
				ai = no
				is_playing_custom_nation = no
			}
			OR = {
				ai = no
				AND = {
					ai = yes
					num_of_cities = 3
				}
			}
			is_colonial_nation = no
			OR = {
				is_former_colonial_nation = no
				AND = {
					is_former_colonial_nation = yes
					ai = no
				}
			}
		}
		provinces_to_highlight = {
			OR = {
				province_id = 740	#Bal Vroren
				province_id = 735
				#province_id = 749
				province_id = 737
				province_id = 738
				province_id = 739
				#province_id = 742
			}
			OR = {
				NOT = { owned_by = ROOT }
				NOT = { is_core = ROOT }
			}
		}
		allow = {
			owns_core_province = 740	#Bal Vroren
			owns_core_province = 735
			#owns_core_province = 749
			owns_core_province = 737
			owns_core_province = 738
			owns_core_province = 739
			#owns_core_province = 742
			adm_tech = 7
			government_rank = 1
			#is_free_or_tributary_trigger = yes #vrorenmarch defined by being a march of Castanor
			is_at_war = no
			num_of_cities = 10
			
		}
		effect = {
			if = {
				limit = { has_reform = adventurer_reform }
				set_country_flag = adventurer_derived_government
			}
			change_tag = Z45
			set_country_flag = feudal_escann_kingdom
			set_country_flag = no_formable_culture_shift
			hidden_effect = { restore_country_name = yes }
			remove_non_electors_emperors_from_empire_effect = yes
			if = {
				limit = {
					NOT = { government_rank = 2 }
				}
				set_government_rank = 2
			}
			if = {
				limit = { OR = { has_reform = adventurer_reform has_country_flag = adventurer_derived_government } }
				adventurer_legacy_effect = yes
#				country_event = { id = adventurer.2 days = 1 }
			}
			hidden_effect = {
				every_owned_province = {
					limit = {
						has_owner_culture = yes
						owner = {
							NOT = { culture_is_half_orcish = yes }
						}
					}
					change_culture = white_reachman
				}
			}
			primary_and_ruler_culture_change = { race = human new_culture = white_reachman }
			
			#Claims
			vrorenmarch_area = {
				limit = {
					NOT = { owned_by = ROOT }
				}
				add_claim = Z45
			}
			gulletpeak_area = {
				limit = {
					NOT = { owned_by = ROOT }
				}
				add_claim = Z45
			}
			cedesck_area = {
				limit = {
					NOT = { owned_by = ROOT }
				}
				add_claim = Z45
			}
			vrorenwall_area = {
				limit = {
					NOT = { owned_by = ROOT }
				}
				add_claim = Z45
			}
			sondaar_area = {
				limit = {
					NOT = { owned_by = ROOT }
				}
				add_claim = Z45
			}
			wudhal_area = {
				limit = {
					NOT = { owned_by = ROOT }
				}
				add_claim = Z45
			}
			east_chillsbay_area = {
				limit = {
					NOT = { owned_by = ROOT }
				}
				add_claim = Z45
			}
			add_prestige = 50
			add_country_modifier = {
				name = "centralization_modifier"
				duration = 7300
			}
			set_country_flag = formed_vrorenmarch_flag
			clr_country_flag = knightly_order_adventurer
			if = {
				limit = { has_custom_ideas = no }
				country_event = { id = ideagroups.1 } #Swap Ideas
			}
		}
		ai_will_do = {
			factor = 1
		}
		ai_importance = 400
	}

	vrorenmarch_march_release = {
		major = yes
		potential = {
			tag = B32
			normal_or_historical_nations = yes
			NOT = { has_country_flag = formed_vrorenmarch_dominion }
			NOT = { exists = Z45 } #Vrorenmarch doesn't exist
			is_colonial_nation = no
			OR = {
				is_former_colonial_nation = no
				AND = {
					is_former_colonial_nation = yes
					ai = no
				}
			}
		}
		provinces_to_highlight = {
			OR = {
				province_id = 740	#Bal Vroren
				province_id = 735	#Seawall
				province_id = 737	#Mammoth Hall
				province_id = 738	#Gulleton
				province_id = 739	#Serpentswall
			}
			NOT = { castanor_dominion_core = yes }
		}
		allow = {
			hidden_trigger = { tag = B32 }
			is_free_or_tributary_trigger = yes
			is_at_war = no
			adm_tech = 7
			num_of_cities = 10
			740 = { castanor_dominion_core = yes } #Bal Vroren
			735 = { castanor_dominion_core = yes } #Seawall
			737 = { castanor_dominion_core = yes } #Mammoth Hall
			738 = { castanor_dominion_core = yes } #Gulleton
			739 = { castanor_dominion_core = yes } #Serpentswall
		}
		effect = {
			hidden_effect = { gerudia_superregion = { castanor_dominion_release = { tag = Z45 } } }
			custom_tooltip = vrorenmarch_release_tooltip
			castanor_dominion_creation = { tag = Z45 }
			Z45 = {
				set_country_flag = feudal_escann_kingdom
				
				#Claims
				vrorenmarch_area = {
					limit = { NOT = { owned_by = ROOT } }
					add_permanent_claim = Z45
				}
				gulletpeak_area = {
					limit = { NOT = { owned_by = ROOT } }
					add_permanent_claim = Z45
				}
				cedesck_area = {
					limit = { NOT = { owned_by = ROOT } }
					add_permanent_claim = Z45
				}
				vrorenwall_area = {
					limit = { NOT = { owned_by = ROOT } }
					add_permanent_claim = Z45
				}
				sondaar_area = {
					limit = { NOT = { owned_by = ROOT } }
					add_permanent_claim = Z45
				}
				wudhal_area = {
					limit = { NOT = { owned_by = ROOT } }
					add_permanent_claim = Z45
				}
				east_chillsbay_area = {
					limit = { NOT = { owned_by = ROOT } }
					add_permanent_claim = Z45
				}
				set_country_flag = formed_vrorenmarch_flag
				clr_country_flag = 	knightly_order_adventurer
				country_event = {
					id = ideagroups.1
					days = 1
				}
			}
			set_country_flag = formed_vrorenmarch_dominion
		}
		ai_will_do = {
			factor = 1
			modifier = {
				factor = 0
				capital_scope = {
					region = alenic_reach_region #stop them from doing it if they don't have a capital and 30 provinces outside the Alenic Reach as a good base
				}
			}
			modifier = {
				factor = 0
				NOT = {
					num_of_owned_provinces_with = {
						value = 30
						NOT = { region = alenic_reach_region }
					}
				}
			}
		}
		#ai_importance = 400
	}

	uanced_nation = {
		major = yes
		potential = {
			OR = {
				has_country_flag = reformed_escanni_adventurer
				has_country_flag = formed_adenica_flag
				has_country_flag = formed_castellyr_flag
				has_country_flag = formed_farranean_flag
				has_country_flag = formed_corintar_flag
				tag = B36
			}
			capital_scope = { province_group = escann_proper }
			796 = { owned_by = ROOT }
			was_never_end_game_tag_trigger = yes
			NOT = { tag = B33 } #Blademarches
			NOT = { is_or_was_tag = { tag = B95 } }
			OR = {
				has_disaster = peasant_war
				has_disaster = court_and_country
				has_disaster = internal_conflicts
			}
		}
		
		provinces_to_highlight = {
			province_id = 796
		}
		
		allow = {
			capital_scope = { province_group = escann_proper }
			796 = {
				owned_by = ROOT
				OR = {
					has_rebel_faction = anti_tax_rebels
					has_rebel_faction = particularist_rebels
					has_rebel_faction = revolutionary_rebels
				}
			}
			OR = {
				has_disaster = peasant_war
				has_disaster = court_and_country
				has_disaster = internal_conflicts
			}
		}
		effect = {
			change_tag = B95
			country_event = { id = ideagroups.1 } #Swap Ideas
			#swap_non_generic_missions = yes #to do when they get missions
			796 = {
				move_capital_effect = yes
			}
			change_government = republic
			add_government_reform = peasants_republic
		}
		ai_will_do = {
			factor = 2
		}
		ai_importance = 400
	}
}
